﻿100% RAW Powerlifting Federation,,,,,,,,,,
"Ottawa Open June 25, 2011",,,,,,,,,,
Name,Age,Weight,Class,1st,2nd,3rd,4th,KILOS,lbs,Place
BENCH PRESS,,,,,,,,,,
Robyn Ripley - ON,(F) 24,53.9,56,50,-51,52,53,52,114.639,1
,,,,,,,,,,
"Wayne Claypatch - NY, USA",55,75,75,110,-115,-115,,110,242.506,1
Luke Roach - ON,15,73.9,75,-95,-95,98,-102.5,98,216.051,2
,,,,,,,,,,
Steve Johnston - ON,42,81.5,82.5,125,132.5,137.5,-140,137.5,303.133,1
Jared Hamilton - QC,28,79,82.5,102.5,110,120,,120,264.552,2
,,,,,,,,,,
Ross Lattazio - ON,50,90,90,-175,-180,180,-183,180,396.828,1
,,,,,,,,,,
Ryan Kingma - ON,24,98.5,100,142.5,152.5,-160,,152.5,336.202,1
Scott MacDiarmid - ON,43,97.8,100,142.5,-152.5,-155,,142.5,314.156,2
Phil Cholette - ON,24,92.8,100,102.5,105,110,,110,242.506,3
,,,,,,,,,,
Richard Moquin - QC,33,105,110,160,170.5,-175,,170.5,375.884,1
,,,,,,,,,,
Philipe Landry - ON,24,125,125,162.5,172.5,-182.5,,172.5,380.294,1
Ryan Wereley - ON,22,117.7,125,157.5,165,-175,,165,363.759,2
,,,,,,,,,,
Taylor Servais - ON,20,130.1,140,150,165,172.5,-175,172.5,380.294,1
Justin Burns - ON,21,134.9,140,125,130,132.5,,132.5,292.11,2
,,,,,,,,,,
Jamie Seguin - ON,22,155.1,140+,155,160,-172.5,,160,352.736,1
Aaron Runnalls - ON,30,151.5,140+,135,142.5,150,,150,330.69,2
