Event,Sex,Name,State,BodyweightKg,WeightClassKg,Division,Best3SquatKg,Best3BenchKg,Best3DeadliftKg,TotalKg,Equipment,Place
SBD,M,Chris Marron,MB,88.2,90,Open,232.5,205.0,247.5,685.0,Single-ply,1
SBD,M,Jason Conrad,MB,82.0,82.5,Open,165.0,122.5,227.5,515.0,Single-ply,1
SBD,M,Bruce Markham,MB,88.3,90,Master 2,272.5,177.5,240.0,690.0,Single-ply,1
SBD,F,Janine Wheeler,ON,94.0,90+,Master 2,105.0,62.5,125.0,292.5,Single-ply,1
SBD,M,Trevor Winfield,MB,125.0,125,Master 1,245.0,280.0,250.0,775.0,Single-ply,1
SBD,M,Brock Haywood,MB,124.9,125,Master 1,275.0,165.0,250.0,690.0,Single-ply,2
SBD,M,Tony Hill,MB,97.9,100,Master 1,165.0,170.0,205.0,540.0,Single-ply,1
B,M,Ed Dufour,MB,102.1,110,Open,,182.5,,182.5,Single-ply,1
B,M,Jeff Chester,MB,94.8,100,Open,,142.5,,142.5,Single-ply,1
