Place,Name,CyrillicName,Sex,BodyweightKg,Squat1Kg,Squat2Kg,Squat3Kg,Best3SquatKg,Squat4Kg,Bench1Kg,Bench2Kg,Bench3Kg,Best3BenchKg,Bench4Kg,Deadlift1Kg,Deadlift2Kg,Deadlift3Kg,Best3DeadliftKg,Deadlift4Kg,TotalKg,WeightClassKg,Event,Equipment,Tested,Division,Age
1,Kseniya Deykina,Ксения Дейкина,F,47.7,95,-97.5,-97.5,95,,52.5,-55,,52.5,,95,100,-102.5,100,,247.5,48,SBD,Raw,Yes,Pro Juniors 20-23,23
1,Vesta Kartaeva,Веста Картаева,F,50.4,62.5,70,75,75,,42.5,47.5,-52.5,47.5,,70,77.5,-80,77.5,,200,52,SBD,Raw,Yes,Pro Open,27
1,Natalya Bredikhina,Наталья Бредихина,F,55.4,80,-82.5,82.5,82.5,,50,-52.5,-52.5,50,,105,110,115,115,,247.5,56,SBD,Raw,Yes,Pro Open,36
2,Olga Semenova,Ольга Семенова,F,54.9,-60,60,-65,60,,40,-42.5,-42.5,40,,80,-85,85,85,,185,56,SBD,Raw,Yes,Pro Open,31
1,Anastasiya Melnik,Анастасия Мельник,F,65,90,100,-105,100,,52.5,57.5,-60,57.5,,115,127.5,-135,127.5,,285,67.5,SBD,Raw,Yes,Pro Juniors 20-23,22
1,Darya Egorova,Дарья Егорова,F,66.7,95,97.5,-100,97.5,,52.5,-55,-55,52.5,,107.5,112.5,,112.5,,262.5,67.5,SBD,Raw,Yes,Pro Open,31
2,Marina Kutepova,Марина Кутепова,F,66.2,80,-87.5,-90,80,,55,57.5,-62.5,57.5,,90,105,110,110,,247.5,67.5,SBD,Raw,Yes,Pro Open,39
1,Alina Kuzminova,Алина Кузьминова,F,82.2,117.5,125,,125,,70,-75,-75,70,,130,140,145,145,,340,82.5,SBD,Raw,Yes,Pro Open,26
1,Nataliya Bashkatova,Наталия Башкатова,F,80.4,100,-110,110,110,,47.5,52.5,55,55,,110,117.5,125,125,,290,82.5,SBD,Raw,Yes,Pro Masters 45-49,45
1,Elena Polonetskaya,Елена Полонецкая,F,84.8,-95,95,-100,95,,57.5,-62.5,62.5,62.5,,110,120,-122.5,120,,277.5,90,SBD,Raw,Yes,Pro Open,28
1,Vladimir Burnashov,Владимир Бурнашов,M,66.4,172.5,175,177.5,177.5,,97.5,-102.5,102.5,102.5,,230,235,-242.5,235,,515,67.5,SBD,Raw,Yes,Pro Teen 15-19,15
1,Vladimir Burnashov,Владимир Бурнашов,M,66.4,177.5,,,177.5,,102.5,,,102.5,,235,,,235,,515,67.5,SBD,Raw,Yes,Pro Open,15
1,Aleksey Feoktistov,Алексей Феоктистов,M,74.2,150,155,162.5,162.5,,110,115,-117.5,115,,-175,175,190,190,,467.5,75,SBD,Raw,Yes,Pro Open,31
1,Dmitriy Karpeev,Дмитрий Карпеев,M,80.5,190,-205,205,205,,130,-137.5,137.5,137.5,,225,-237.5,237.5,237.5,,580,82.5,SBD,Raw,Yes,Pro Open,34
2,Sergey Shabalin,Сергей Шабалин,M,82.1,-200,205,212.5,212.5,,135,140,-145,140,,200,207.5,215,215,,567.5,82.5,SBD,Raw,Yes,Pro Open,30
1,Nikolay Vorobev,Николай Воробьев,M,88,195,205,210,210,,140,145,150,150,,230,237.5,-245,237.5,,597.5,90,SBD,Raw,Yes,Pro Open,33
2,Aleksandr Lyovin,Александр Лёвин,M,88.2,195,205,-212.5,205,,127.5,135,140,140,,225,240,252.5,252.5,,597.5,90,SBD,Raw,Yes,Pro Open,29
1,Aleksey Avvakumov,Алексей Аввакумов,M,86.5,160,170,175,175,,130,-135,-135,130,,170,-180,,170,,475,90,SBD,Raw,Yes,Pro Masters 40-44,44
1,Aleksandr Popov,Александр Попов,M,93.6,160,-170,-170,160,,120,-125,-125,120,,180,-190,-190,180,,460,100,SBD,Raw,Yes,Pro Open,27
1,Sergey Ryzhov,Сергей Рыжов,M,99.3,215,225,-230,225,,145,,,145,,225,-240,-240,225,,595,100,SBD,Raw,Yes,Pro Masters 40-44,40
2,Sergey Lyapustin,Сергей Ляпустин,M,99.5,165,170,-175,170,,100,-110,110,110,,195,-205,-205,195,,475,100,SBD,Raw,Yes,Pro Masters 40-44,41
1,Sergey Gusev,Сергей Гусев,M,107,225,240,250,250,,175,182.5,190,190,,250,260,267.5,267.5,,707.5,110,SBD,Raw,Yes,Pro Open,30
2,Aleksandr Efimov,Александр Ефимов,M,108.6,-215,-220,220,220,,152.5,-157.5,157.5,157.5,,230,240,250,250,,627.5,110,SBD,Raw,Yes,Pro Open,39
3,Anton Chyomov,Антон Чёмов,M,108.1,205,220,-232.5,220,,147.5,157.5,-162.5,157.5,,197.5,212.5,-217.5,212.5,,590,110,SBD,Raw,Yes,Pro Open,38
1,Ion Parshikov,Ион Паршиков,M,116.1,215,230,-240,230,,150,157.5,160,160,,230,-235,-237.5,230,,620,125,SBD,Raw,Yes,Pro Juniors 20-23,22
1,Ion Parshikov,Ион Паршиков,M,116.1,215,230,-240,230,,150,157.5,160,160,,230,-235,-237.5,230,,620,125,SBD,Raw,Yes,Pro Open,22
2,Vladimir Gryaznov,Владимир Грязнов,M,113.3,-195,195,205,205,,165,-175,,165,,235,-245,245,245,,615,125,SBD,Raw,Yes,Pro Open,24
3,Nikolay Konev,Николай Конев,M,112.7,185,195,200,200,,140,150,155,155,,220,235,240,240,,595,125,SBD,Raw,Yes,Pro Open,29
1,Aleksandra Avanesyan,Александра Аванесян,M,79.7,130,135,140,140,,85,90,95,95,,140,150,160,160,,395,82.5,SBD,Raw,No,Pro Open,23
1,Ivan Rogozin,Иван Рогозин,M,80.2,150,160,170,170,,120,130,137.5,137.5,,-190,190,200,200,,507.5,82.5,SBD,Raw,No,Pro Juniors 20-23,21
1,Aleksey Nikulin,Алексей Никулин,M,80.1,330,345,-350,345,,170,177.5,180,180,,300,-310,-310,300,,825,82.5,SBD,Raw,No,Pro Open,35
1,Kirill Pokryshka,Кирилл Покрышка,M,88.7,220,225,230,230,,160,167.5,172.5,172.5,,225,235,-245,235,,637.5,90,SBD,Raw,No,Pro Juniors 20-23,22
1,Aleksandr Cherednichenko,Александр Чередниченко,M,87.7,245,255,260,260,,172.5,180,-185,180,,280,290,295,295,,735,90,SBD,Raw,No,Pro Open,27
2,Sergey Surkov,Сергей Сурков,M,89.7,225,-235,235,235,,175,185,190,190,,270,285,-300,285,,710,90,SBD,Raw,No,Pro Open,32
3,Stanislav Timofeev,Станислав Тимофеев,M,89.5,210,220,230,230,,150,160,-165,160,,250,260,-270,260,,650,90,SBD,Raw,No,Pro Open,37
1,Vladimir Levkin,Владимир Левкин,M,99.5,225,235,242.5,242.5,,-165,165,175,175,,260,270,-280,270,,687.5,100,SBD,Raw,No,Pro Teen 15-19,19
1,Sergey Kachan,Сергей Качан,M,97.7,240,250,-255,250,,170,177.5,182.5,182.5,,270,280,290,290,,722.5,100,SBD,Raw,No,Pro Open,26
DQ,Andrey Karmishin,Андрей Кармишин,M,97.3,-217.5,-230,-230,,,,,,,,,,,,,,100,SBD,Raw,No,Pro Open,34
1,Valeriy Kosterin,Валерий Костерин,M,106.3,245,252.5,-257.5,252.5,,187.5,192.5,195,195,,-292.5,-292.5,292.5,292.5,,740,110,SBD,Raw,No,Pro Open,26
1,Mikhail Matyunin,Михаил Матюнин,M,122.6,230,,,230,,150,160,-170,160,,180,200,220,220,,610,125,SBD,Raw,No,Pro Open,32
DQ,Dmitriy Volkov,Дмитрий Волков,M,117.8,200,210,-215,210,,135,-142.5,-142.5,135,,-200,-200,-200,,,,125,SBD,Raw,No,Pro Open,35
1,Natalya Larina,Наталья Ларина,F,67.5,-100,-100,100,100,,55,-62.5,-62.5,55,,110,-120,120,120,,275,67.5,SBD,Wraps,Yes,Pro Open,54
1,Kseniya Aleksandrova,Ксения Александрова,F,74,-135,140,-142.5,140,,65,67.5,-72.5,67.5,,135,140,,140,,347.5,75,SBD,Wraps,Yes,Pro Open,25
1,Andrey Gusev,Андрей Гусев,M,66.9,110,120,-130,120,,77.5,82.5,87.5,87.5,,140,-150,150,150,,357.5,67.5,SBD,Wraps,Yes,Pro Teen 15-19,18
1,Aleksey Pikalov,Алексей Пикалов,M,66,160,170,-175,170,,90,97.5,-100,97.5,,185,200,-207.5,200,,467.5,67.5,SBD,Wraps,Yes,Pro Open,31
1,Gor Petrosyan,Гор Петросян,M,89.3,-205,205,-215,205,,155,160,-162.5,160,,220,235,-247.5,235,,600,90,SBD,Wraps,Yes,Pro Juniors 20-23,23
1,Dmitriy Galaktionov,Дмитрий Галактионов,M,88.1,160,170,-180,170,,100,105,-110,105,,170,-185,-185,170,,445,90,SBD,Wraps,Yes,Pro Open,35
1,Yuriy Marenkov,Юрий Маренков,M,95.8,-220,220,235,235,,147.5,155,-157.5,155,,210,220,225,225,,615,100,SBD,Wraps,Yes,Pro Open,41
2,Artem Bryantsev,Артем Брянцев,M,98.2,-195,-195,195,195,,125,-135,-135,125,,215,225,232.5,232.5,,552.5,100,SBD,Wraps,Yes,Pro Open,35
1,Yuriy Marenkov,Юрий Маренков,M,95.8,-220,220,235,235,,147.5,155,-157.5,155,,210,220,225,225,,615,100,SBD,Wraps,Yes,Pro Masters 40-44,41
1,Armen Ayrapetyan,Армен Айрапетян,M,105,-200,-200,200,200,,150,-155,155,155,,187.5,195,-205,195,,550,110,SBD,Wraps,Yes,Pro Open,32
1,Dmitriy Sidorov,Дмитрий Сидоров,M,119.2,200,-210,210,210,,147.5,155,-160,155,,210,225,235,235,,600,125,SBD,Wraps,Yes,Pro Masters 40-44,41
1,Oksana Kuznetsova,Оксана Кузнецова,F,57.6,132.5,142.5,150,150,155,75,80,85,85,90,130,137.5,-150,137.5,,372.5,60,SBD,Wraps,No,Pro Open,27
1,Aleksandr Somov,Александр Сомов,M,80.2,-165,165,175,175,,120,130,135,135,,165,175,180,180,,490,82.5,SBD,Wraps,No,Pro Juniors 20-23,23
1,Aleksey Maksimov,Алексей Максимов,M,89,210,222.5,227.5,227.5,,157.5,-167.5,-170,157.5,,-240,240,,240,,625,90,SBD,Wraps,No,Pro Open,28
1,Ruslan Kuznetsov,Руслан Кузнецов,M,98.5,285,-300,-300,285,,150,157.5,165,165,,200,220,,220,,670,100,SBD,Wraps,No,Pro Juniors 20-23,23
2,Maksim Babashkin,Максим Бабашкин,M,94,-200,200,215,215,,-140,150,-155,150,,235,245,255,255,,620,100,SBD,Wraps,No,Pro Juniors 20-23,23
1,David Sablin,Давид Саблин,M,99.8,-320,330,350,350,,220,230,-235,230,,295,-312.5,-312.5,295,,875,100,SBD,Wraps,No,Pro Open,28
2,Ruslan Kuznetsov,Руслан Кузнецов,M,98.5,285,-300,-300,285,,150,157.5,165,165,,200,220,,220,,670,100,SBD,Wraps,No,Pro Open,23
3,Vladislav Lunkin,Владислав Лункин,M,98,240,250,-260,250,,150,157.5,-162.5,157.5,,240,-250,,240,,647.5,100,SBD,Wraps,No,Pro Open,34
1,Aleksandr Shishkin,Александр Шишкин,M,97.8,265,-275,275,275,,150,157.5,-160,157.5,,240,-255,-255,240,,672.5,100,SBD,Wraps,No,Pro Masters 40-44,42
1,Ivan Dmitriev,Иван Дмитриев,M,98.8,-260,270,290,290,,155,160,-165,160,,310,330,-340,330,,780,100,SBD,Wraps,No,Pro Masters 45-49,48
1,Evgeniy Antonyan,Евгений Антонян,M,107.2,290,300,,300,,230,240,,240,,250,260,-270,260,,800,110,SBD,Wraps,No,Pro Juniors 20-23,22
1,Evgeniy Antonyan,Евгений Антонян,M,107.2,290,300,,300,,230,240,,240,,250,260,-270,260,,800,110,SBD,Wraps,No,Pro Open,22
2,Andrey Pavlov,Андрій Павлов,M,100.4,-280,280,-295,280,,150,-160,-160,150,,240,260,,260,,690,110,SBD,Wraps,No,Pro Open,38
1,Roman Atanov,Роман Атанов,M,120.5,-290,310,325,325,,190,197.5,-200,197.5,,290,310,-325,310,,832.5,125,SBD,Wraps,No,Pro Masters 40-44,44
1,Ruslan Petrushkin,Руслан Петрушкин,M,157.4,275,290,300,300,,190,200,205,205,,240,260,270,270,,775,140+,SBD,Wraps,No,Pro Open,33
1,Aleksey Emelyanov,Алексей Емельянов,M,79.3,290,305,-310,305,,185,-192.5,192.5,192.5,,245,260,-270,260,,757.5,82.5,SBD,Single-ply,No,Pro Open,35
DQ,Ilya Mironov,Илья Миронов,M,95.6,235,245,-255,245,,-170,-170,-170,,,240,250,-265,250,,,100,SBD,Single-ply,No,Pro Open,25
1,Aleksandr Zubarev,Александр Зубарев,M,108,210,220,235,235,,140,150,155,155,,-215,215,230,230,,620,110,SBD,Single-ply,No,Pro Open,28
DQ,Aleksey Volzhskiy,Алексей Волжский,M,102.9,220,230,-235,230,,-145,-145,-145,,,215,-220,-220,215,,,110,SBD,Single-ply,No,Pro Open,33
1,Evgeniy Tyutyaev,Евгений Тютяев,M,118.1,275,-285,285,285,,220,235,-250,235,,250,260,-270,260,,780,125,SBD,Single-ply,No,Pro Open,30
1,Sergey Ryzhov,Сергей Рыжов,M,99.3,215,225,-230,225,,,,,,,,,,,,225,100,S,Raw,Yes,Pro Masters 40-44,40
1,Aleksey Nikulin,Алексей Никулин,M,80.1,330,345,-350,345,,,,,,,,,,,,345,82.5,S,Raw,No,Pro Open,35
1,Aleksandr Cherednichenko,Александр Чередниченко,M,87.7,245,255,260,260,,,,,,,,,,,,260,90,S,Raw,No,Pro Open,27
1,Andrey Pavlov,Андрій Павлов,M,100.4,-280,280,-295,280,,,,,,,,,,,,280,110,S,Wraps,No,Pro Open,38
1,Aleksey Volzhskiy,Алексей Волжский,M,102.9,230,,,230,,,,,,,,,,,,230,110,S,Single-ply,No,Pro Open,33
1,Tatyana Serova,Татьяна Серова,F,47.8,,,,,,47.5,52.5,-55,52.5,,,,,,,52.5,48,B,Raw,Yes,Pro Open,39
1,Evgeniya Ruleva,Евгения Рулева,F,52,,,,,,62.5,67.5,70,70,,,,,,,70,52,B,Raw,Yes,Pro Open,29
2,Natalya Konchakova,Наталья Кончакова,F,51.7,,,,,,65,67.5,-70,67.5,,,,,,,67.5,52,B,Raw,Yes,Pro Open,40
1,Natalya Konchakova,Наталья Кончакова,F,51.7,,,,,,65,67.5,-70,67.5,,,,,,,67.5,52,B,Raw,Yes,Pro Masters 40-44,40
1,Elena Panteleva,Елена Пантелева,F,54.7,,,,,,52.5,-57.5,-62.5,52.5,,,,,,,52.5,56,B,Raw,Yes,Pro Open,31
1,Ivan Nikitinskiy,Иван Никитинский,M,51.5,,,,,,47.5,52.5,57.5,57.5,-60,,,,,,57.5,52,B,Raw,Yes,Pro Teen 15-19,12
1,Nikita Pogoskin,Никита Погоскин,M,60,,,,,,95,100,-105,100,,,,,,,100,60,B,Raw,Yes,Pro Teen 15-19,17
2,Sergey Nazarov,Сергей Назаров,M,59.4,,,,,,72.5,80,-87.5,80,,,,,,,80,60,B,Raw,Yes,Pro Teen 15-19,14
1,Gagik Sagatelyan,Гагик Сагателян,M,57.4,,,,,,115,117.5,120,120,,,,,,,120,60,B,Raw,Yes,Pro Juniors 20-23,22
1,Nikita Samokhvalov,Никита Самохвалов,M,64.9,,,,,,-135,135,-142.5,135,,,,,,,135,67.5,B,Raw,Yes,Pro Open,29
1,Daniil Berezhnoy,Даниил Бережной,M,74,,,,,,105,110,-112.5,110,,,,,,,110,75,B,Raw,Yes,Pro Teen 15-19,18
1,Ilya Bychkov,Илья Бычков,M,73.5,,,,,,115,120,125,125,,,,,,,125,75,B,Raw,Yes,Pro Open,31
2,Kirill Kondrashev,Кирилл Кондрашев,M,75,,,,,,110,117.5,120,120,,,,,,,120,75,B,Raw,Yes,Pro Open,31
1,Dmitriy Babykin,Дмитрий Бабыкин,M,74.8,,,,,,130,135,137.5,137.5,,,,,,,137.5,75,B,Raw,Yes,Pro Masters 40-44,40
1,Anton Neudakin,Антон Неудакин,M,79.3,,,,,,160,167.5,175,175,,,,,,,175,82.5,B,Raw,Yes,Pro Open,31
2,Artem Golubka,Артем Голубка,M,78.3,,,,,,137.5,-145,145,145,,,,,,,145,82.5,B,Raw,Yes,Pro Open,33
3,Dmitriy Zabulika,Дмитрий Забулика,M,79,,,,,,125,-130,-130,125,,,,,,,125,82.5,B,Raw,Yes,Pro Open,26
1,Denis Chakalov,Денис Чакалов,M,89.1,,,,,,162.5,170,-175,170,,,,,,,170,90,B,Raw,Yes,Pro Open,31
2,Ivan Kashin,Иван Кашин,M,87.3,,,,,,-165,-165,165,165,,,,,,,165,90,B,Raw,Yes,Pro Open,30
3,Vladislav Girko,Владислав Гирко,M,89.1,,,,,,157.5,-165,-165,157.5,,,,,,,157.5,90,B,Raw,Yes,Pro Open,30
4,Mikhail Chachev,Михаил Чачев,M,89.4,,,,,,150,157.5,-162.5,157.5,,,,,,,157.5,90,B,Raw,Yes,Pro Open,24
5,Dmitriy Gladkov,Дмитрий Гладков,M,89.3,,,,,,145,152.5,155,155,,,,,,,155,90,B,Raw,Yes,Pro Open,31
6,Sergey Lapshov,Сергей Лапшов,M,88.3,,,,,,145,147.5,-152.5,147.5,,,,,,,147.5,90,B,Raw,Yes,Pro Open,39
7,Denis Ksenofontov,Денис Ксенофонтов,M,89.4,,,,,,142.5,-155,-155,142.5,,,,,,,142.5,90,B,Raw,Yes,Pro Open,27
1,Vladimir Lashin,Владимир Лашин,M,89.8,,,,,,-130,-130,130,130,,,,,,,130,90,B,Raw,Yes,Pro Masters 55-59,58
1,Vadim Makartsov,Вадим Макарцов,M,95.5,,,,,,187.5,192.5,195,195,,,,,,,195,100,B,Raw,Yes,Pro Open,36
2,Konstantin Kuvezenkov,Константин Кувезенков,M,94.5,,,,,,170,177.5,-182.5,177.5,,,,,,,177.5,100,B,Raw,Yes,Pro Open,37
1,Aleksey Ladontsev,Алексей Ладонцев,M,97.9,,,,,,147.5,150,-155,150,,,,,,,150,100,B,Raw,Yes,Pro Masters 40-44,44
1,Andrey Petrov,Андрей Петров,M,109.7,,,,,,170,177.5,-180,177.5,,,,,,,177.5,110,B,Raw,Yes,Pro Open,36
1,Aleksandr Komarov,Александр Комаров,M,117.1,,,,,,195,202.5,207.5,207.5,,,,,,,207.5,125,B,Raw,Yes,Pro Open,30
2,Aleksandr Petaev,Александр Петаев,M,111.2,,,,,,132.5,137.5,142.5,142.5,,,,,,,142.5,125,B,Raw,Yes,Pro Open,30
1,Vladimir Chubarov,Владимир Чубаров,M,124,,,,,,170,-175,-175,170,,,,,,,170,125,B,Raw,Yes,Pro Masters 50-54,54
1,Aleksandr Gryaznov,Александр Грязнов,M,137.3,,,,,,152.5,-162.5,165,165,,,,,,,165,140,B,Raw,Yes,Pro Open,32
1,Shuana Musaeva,Шуана Мусаева,F,50.8,,,,,,35,40,-45,40,,,,,,,40,52,B,Raw,No,Pro Girls,14
1,Alyona Mukhina,Алёна Мухина,F,66,,,,,,50,55,57.5,57.5,,,,,,,57.5,67.5,B,Raw,No,Pro Girls,14
1,Sergey Agapov,Сергей Агапов,M,72,,,,,,160,170,177.5,177.5,,,,,,,177.5,75,B,Raw,No,Pro Open,29
1,Aleksandr Moiseev,Александр Моисеев,M,79.6,,,,,,172.5,182.5,-185,182.5,,,,,,,182.5,82.5,B,Raw,No,Pro Open,28
2,Aleksey Nikulin,Алексей Никулин,M,80.1,,,,,,170,177.5,180,180,,,,,,,180,82.5,B,Raw,No,Pro Open,35
3,Denis Sokov,Денис Соков,M,79,,,,,,170,175,-182.5,175,,,,,,,175,82.5,B,Raw,No,Pro Open,32
4,Artem Vereshchagin,Артем Верещагин,M,82,,,,,,165,-170,-170,165,,,,,,,165,82.5,B,Raw,No,Pro Open,29
1,Valeriy Boyarchenko,Валерий Боярченко,M,81.3,,,,,,150,-157.5,,150,,,,,,,150,82.5,B,Raw,No,Pro Masters 40-44,43
1,Valeriy Sorokin,Валерий Сорокин,M,89.4,,,,,,192.5,200,-205,200,,,,,,,200,90,B,Raw,No,Pro Open,32
2,Sergey Surkov,Сергей Сурков,M,89.7,,,,,,175,185,190,190,,,,,,,190,90,B,Raw,No,Pro Open,32
3,Roman Khorev,Роман Хорев,M,89.5,,,,,,170,180,-185,180,,,,,,,180,90,B,Raw,No,Pro Open,35
4,Vladislav Volchanov,Владислав Волчанов,M,86.4,,,,,,165,-175,177.5,177.5,,,,,,,177.5,90,B,Raw,No,Pro Open,42
5,Aleksandr Novoselov,Александр Новоселов,M,86.5,,,,,,-170,175,-180,175,,,,,,,175,90,B,Raw,No,Pro Open,30
6,Aleksey Maksimov,Алексей Максимов,M,89,,,,,,157.5,-167.5,-170,157.5,,,,,,,157.5,90,B,Raw,No,Pro Open,28
1,Vladislav Volchanov,Владислав Волчанов,M,86.4,,,,,,165,-175,177.5,177.5,,,,,,,177.5,90,B,Raw,No,Pro Masters 40-44,42
1,Oleg Mayorov,Олег Майоров,M,98.7,,,,,,-185,185,195,195,,,,,,,195,100,B,Raw,No,Pro Open,30
2,Aleksey Vasenin,Алексей Васенин,M,94.6,,,,,,170,185,-192.5,185,,,,,,,185,100,B,Raw,No,Pro Open,38
3,Dmitriy Churilov,Дмитрий Чурилов,M,96.2,,,,,,160,-175,-175,160,,,,,,,160,100,B,Raw,No,Pro Open,34
4,Roman Aleshin,Роман Алешин,M,99.3,,,,,,-150,150,-160,150,,,,,,,150,100,B,Raw,No,Pro Open,36
1,Evgeniy Antonyan,Евгений Антонян,M,107.2,,,,,,230,240,,240,,,,,,,240,110,B,Raw,No,Pro Juniors 20-23,22
1,Akhmed Musaev,Ахмед Мусаев,M,104,,,,,,200,207.5,210,210,,,,,,,210,110,B,Raw,No,Pro Open,37
2,Vladislav Sidorenko,Владислав Сидоренко,M,107.9,,,,,,200,-207.5,210,210,,,,,,,210,110,B,Raw,No,Pro Open,30
3,Denis Puzyrev,Денис Пузырев,M,108.6,,,,,,185,-190,-190,185,,,,,,,185,110,B,Raw,No,Pro Open,44
4,Artyom Suvorov,Артём Суворов,M,108.2,,,,,,150,-160,-170,150,,,,,,,150,110,B,Raw,No,Pro Open,30
1,Denis Puzyrev,Денис Пузырев,M,108.6,,,,,,185,-190,-190,185,,,,,,,185,110,B,Raw,No,Pro Masters 40-44,44
2,Dmitriy Myakishev,Дмитрий Мякишев,M,108.2,,,,,,160,-170,170,170,,,,,,,170,110,B,Raw,No,Pro Masters 40-44,44
1,Genadiy Yakubenko,Генадий Якубенко,M,107.5,,,,,,150,155,160,160,,,,,,,160,110,B,Raw,No,Pro Masters 45-49,45
1,Vladimir Kudryashov,Владимир Кудряшов,M,118.5,,,,,,225,235,242.5,242.5,,,,,,,242.5,125,B,Raw,No,Pro Open,32
2,Aleksandr Kuznetsov,Александр Кузнецов,M,117.4,,,,,,235,240,-245,240,,,,,,,240,125,B,Raw,No,Pro Open,39
3,Evgeniy Avdulov,Евгений Авдулов,M,115,,,,,,190,200,-202.5,200,,,,,,,200,125,B,Raw,No,Pro Open,34
4,Dmitriy Rychagov,Дмитрий Рычагов,M,115.4,,,,,,160,167.5,175,175,,,,,,,175,125,B,Raw,No,Pro Open,24
1,Sergey Gerasimov,Сергей Герасимов,M,123.5,,,,,,217.5,225,-230,225,,,,,,,225,125,B,Raw,No,Pro Masters 40-44,42
1,Valeriy Ruban,Валерий Рубан,M,82,,,,,,197.5,207.5,-215,207.5,,,,,,,207.5,82.5,B,Single-ply,Yes,Pro Open,28
1,Vladimir Konchakov,Владимир Кончаков,M,88.7,,,,,,255,270,280,280,,,,,,,280,90,B,Single-ply,Yes,Pro Open,45
1,Ekaterina Zaytseva,Екатерина Зайцева,F,78.2,,,,,,175,185,-190,185,,,,,,,185,82.5,B,Single-ply,No,Pro Open,31
1,Pavel Silushin,Павел Силушин,M,87.7,,,,,,240,260,272.5,272.5,-282.5,,,,,,272.5,90,B,Single-ply,No,Pro Open,28
2,Yuriy Belenkiy,Юрий Беленький,M,87,,,,,,200,210,-217.5,210,,,,,,,210,90,B,Single-ply,No,Pro Open,28
1,Vitaliy Pletnev,Виталий Плетнев,M,96.2,,,,,,220,230,-235,230,,,,,,,230,100,B,Single-ply,No,Pro Open,38
2,Denis Grigorev,Денис Григорьев,M,99.5,,,,,,-210,210,-232.5,210,,,,,,,210,100,B,Single-ply,No,Pro Open,35
1,Nikolay Pyshmintsev,Николай Пышминцев,M,130.5,,,,,,300,,,300,,,,,,,300,140,B,Single-ply,No,Pro Open,37
1,Lidiya Zakharova,Лидия Захарова,F,56.5,,,,,,80,85,-92.5,85,,,,,,,85,60,B,Multi-ply,Yes,Pro Open,30
1,Andrey Ignatov,Андрей Игнатов,M,95.6,,,,,,-290,290,-305,290,,,,,,,290,100,B,Multi-ply,Yes,Pro Open,26
1,Nikolay Pankov,Николай Панков,M,104.3,,,,,,-230,230,250,250,,,,,,,250,110,B,Multi-ply,Yes,Pro Juniors 20-23,21
1,Kirill Bobrovskiy,Кирилл Бобровский,M,135.8,,,,,,300,312.5,325,325,,,,,,,325,140,B,Multi-ply,Yes,Pro Open,37
1,Sergey Sidorovskiy,Сергей Сидоровский,M,74.85,,,,,,175,187.5,-200,187.5,,,,,,,187.5,75,B,Multi-ply,No,Pro Masters 40-49,47
1,Aleksey Samardin,Алексей Самардин,M,80.1,,,,,,215,225,235,235,,,,,,,235,82.5,B,Multi-ply,No,Pro Open,34
2,Aleksey Volkov,Алексей Волков,M,82.1,,,,,,200,220,-235,220,,,,,,,220,82.5,B,Multi-ply,No,Pro Open,33
3,Yuriy Eremin,Юрий Еремин,M,81.8,,,,,,-200,200,-272.5,200,,,,,,,200,82.5,B,Multi-ply,No,Pro Open,34
1,Oleg Seleznev,Олег Селезнев,M,87.8,,,,,,-220,220,230,230,,,,,,,230,90,B,Multi-ply,No,Pro Open,26
2,Aleksandr Venger,Александр Венгер,M,88.6,,,,,,210,-220,220,220,,,,,,,220,90,B,Multi-ply,No,Pro Open,30
3,Roman Ksenofontov,Роман Ксенофонтов,M,85.25,,,,,,195,210,-220,210,,,,,,,210,90,B,Multi-ply,No,Pro Open,29
1,Vitaliy Pletnev,Виталий Плетнев,M,96.2,,,,,,-250,-270,270,270,,,,,,,270,100,B,Multi-ply,No,Pro Open,38
2,Dmitriy Churilov,Дмитрий Чурилов,M,96.15,,,,,,190,-200,217.5,217.5,,,,,,,217.5,100,B,Multi-ply,No,Pro Open,34
3,Vyacheslav Ermolaev,Вячеслав Ермолаев,M,94.8,,,,,,200,207.5,215,215,,,,,,,215,100,B,Multi-ply,No,Pro Open,37
4,Georgiy Kotelnikov,Георгий Котельников,M,93.5,,,,,,-210,210,-235,210,,,,,,,210,100,B,Multi-ply,No,Pro Open,26
1,Yuriy Sustavov,Юрий Суставов,M,106.7,,,,,,300,320,330,330,-340,,,,,,330,110,B,Multi-ply,No,Pro Open,43
2,Denis Puzyrev,Денис Пузырев,M,108.6,,,,,,235,250,-262.5,250,,,,,,,250,110,B,Multi-ply,No,Pro Open,44
1,Nikolay Emelyanov,Николай Емельянов,M,113.5,,,,,,305,320,330,330,340,,,,,,330,125,B,Multi-ply,No,Pro Open,38
2,Oleg Bunin,Олег Бунин,M,121.9,,,,,,300,-315,-320,300,,,,,,,300,125,B,Multi-ply,No,Pro Open,39
1,Sergey Pleshenkov,Сергей Плешенков,M,134.15,,,,,,260,275,290,290,,,,,,,290,140,B,Multi-ply,No,Pro Open,43
1,Ivan Poryadin,Иван Порядин,M,98.9,,,,,,300,-327.5,-327.5,300,,,,,,,300,100,B,Multi-ply,No,Pro Open,36
1,Roman Yurasov,Роман Юрасов,M,116,,,,,,345,360,370,370,,,,,,,370,125,B,Multi-ply,No,Pro Masters 40-49,42
1,Elena Lebedeva,Елена Лебедева,F,83.3,,,,,,32.5,37.5,-42.5,37.5,,,,,,,37.5,90,B,Raw,No,Pro Masters 50-59,54
1,Valentina Semenyuk,Валентина Семенюк,F,84.4,,,,,,30,32.5,-35,32.5,,,,,,,32.5,90,B,Raw,No,Pro Masters 60-69,66
1,Aleksandr Andreev,Александр Андреев,M,65.6,,,,,,85,-90,90,90,,,,,,,90,67.5,B,Raw,No,Pro Teen 13-19,15
1,Aleksey Pachin,Алексей Пачин,M,73.5,,,,,,75,80,82.5,82.5,,,,,,,82.5,75,B,Raw,No,Pro Open,39
DQ,Vasiliy Bezborodov,Василий Безбородов,M,69,,,,,,-85,-85,-85,,,,,,,,,75,B,Raw,No,Pro Open,24
1,Georgiy Gvozdev,Георгий Гвоздев,M,77.7,,,,,,105,107.5,110,110,,,,,,,110,82.5,B,Raw,No,Pro Masters 50-59,59
1,Vyacheslav Grunichev,Вячеслав Груничев,M,79.3,,,,,,-30,30,-35,30,,,,,,,30,82.5,B,Raw,No,Pro Masters 70-79,79
1,Ivan Puryshev,Иван Пурышев,M,95,,,,,,70,75,80,80,,,,,,,80,100,B,Raw,No,Pro Open,38
1,Sergey Kovalyov,Сергей Ковалёв,M,99.3,,,,,,110,112.5,-115,112.5,,,,,,,112.5,100,B,Raw,No,Pro Masters 40-49,49
1,Olga Yaroslavtseva,Ольга Ярославцева,F,50.5,,,,,,,,,,,82.5,95,-102.5,95,,95,52,D,Raw,Yes,Pro Open,29
1,Alina Mashkova,Алина Машкова,F,54.5,,,,,,,,,,,110,117.5,-125,117.5,,117.5,56,D,Raw,Yes,Pro Open,30
2,Larisa Turlova,Лариса Турлова,F,54.8,,,,,,,,,,,-95,-95,95,95,,95,56,D,Raw,Yes,Pro Open,30
1,Zhanna Fedorova,Жанна Федорова,F,59.8,,,,,,,,,,,105,112.5,-117.5,112.5,,112.5,60,D,Raw,Yes,Pro Masters 50-54,54
1,Anastasiya Melnik,Анастасия Мельник,F,65,,,,,,,,,,,115,127.5,-135,127.5,,127.5,67.5,D,Raw,Yes,Pro Juniors 20-23,22
1,Nikita Pogoskin,Никита Погоскин,M,60,,,,,,,,,,,152.5,-165,-165,152.5,,152.5,60,D,Raw,Yes,Pro Teen 15-19,17
1,Vladimir Burnashov,Владимир Бурнашов,M,66.4,,,,,,,,,,,230,235,-242.5,235,,235,67.5,D,Raw,Yes,Pro Open,15
1,Evgeniy Shirokov,Евгений Широков,M,74.4,,,,,,,,,,,190,-200,-200,190,,190,75,D,Raw,Yes,Pro Open,29
DQ,Vartan Paloyan,Вартан Палоян,M,74.6,,,,,,,,,,,-300,-300,-300,,,,75,D,Raw,Yes,Pro Open,29
1,Andrey Demin,Андрей Демин,M,73.5,,,,,,,,,,,-192.5,195,-207.5,195,,195,75,D,Raw,Yes,Pro Masters 40-44,43
1,Mikhail Kiselev,Михаил Киселев,M,82.4,,,,,,,,,,,260,272.5,285,285,290,285,82.5,D,Raw,Yes,Pro Open,25
2,Nikita Goloviznin,Никита Головизнин,M,81.5,,,,,,,,,,,-270,270,-282.5,270,,270,82.5,D,Raw,Yes,Pro Open,29
3,Maksim Kharin,Максим Харин,M,78.2,,,,,,,,,,,180,190,-195,190,,190,82.5,D,Raw,Yes,Pro Open,30
DQ,Aleksey Bulatov,Алексей Булатов,M,79.1,,,,,,,,,,,-162.5,-172.5,-172.5,,,,82.5,D,Raw,Yes,Pro Open,32
1,Vladislav Girko,Владислав Гирко,M,89.1,,,,,,,,,,,230,245,-250,245,,245,90,D,Raw,Yes,Pro Open,30
2,Aleksey Semenov,Алексей Семенов,M,85.5,,,,,,,,,,,-185,185,202.5,202.5,,202.5,90,D,Raw,Yes,Pro Open,28
1,Vladimir Plonin,Владимир Плонин,M,95.8,,,,,,,,,,,205,210,-215,210,,210,100,D,Raw,Yes,Pro Juniors 20-23,22
1,Sergey Banturov,Сергей Бантуров,M,97.4,,,,,,,,,,,200,-210,210,210,,210,100,D,Raw,Yes,Pro Open,35
1,Sergey Efimov,Сергей Ефимов,M,98.9,,,,,,,,,,,235,250,260,260,,260,100,D,Raw,Yes,Pro Masters 40-44,43
1,Sergey Muravyov,Сергей Муравьёв,M,110,,,,,,,,,,,270,280,285,285,-290,285,110,D,Raw,Yes,Pro Open,42
2,Dmitriy Shchyotkin,Дмитрий Щёткин,M,109.8,,,,,,,,,,,250,267.5,-282.5,267.5,,267.5,110,D,Raw,Yes,Pro Open,35
3,Aleksandr Efimov,Александр Ефимов,M,108.6,,,,,,,,,,,250,,,250,,250,110,D,Raw,Yes,Pro Open,39
1,Sergey Muravyov,Сергей Муравьёв,M,110,,,,,,,,,,,270,280,285,285,-290,285,110,D,Raw,Yes,Pro Masters 40-44,42
1,Ion Parshikov,Ион Паршиков,M,116.1,,,,,,,,,,,230,-235,-237.5,230,,230,125,D,Raw,Yes,Pro Juniors 20-23,22
1,Nikolay Konev,Николай Конев,M,112.7,,,,,,,,,,,220,235,240,240,,240,125,D,Raw,Yes,Pro Open,29
1,Dmitriy Larin,Дмитрий Ларин,M,139.1,,,,,,,,,,,265,285,-302.5,285,,285,140,D,Raw,Yes,Pro Open,29
1,Anna Gromova,Анна Громова,F,54.5,,,,,,,,,,,135,142.5,-150,142.5,,142.5,56,D,Raw,No,Pro Open,29
2,Mariya Nikitochkina,Мария Никиточкина,F,54.8,,,,,,,,,,,87.5,-95,-95,87.5,,87.5,56,D,Raw,No,Pro Open,29
1,Viktoriya Zaytseva,Виктория Зайцева,F,62.4,,,,,,,,,,,125,135,-140,135,,135,67.5,D,Raw,No,Pro Open,24
1,Timur Zhidyaev,Тимур Жидяев,M,64.5,,,,,,,,,,,112.5,122.5,-130,122.5,,122.5,67.5,D,Raw,No,Pro Teen 15-19,16
1,Sergey Sitov,Сергей Ситов,M,81.1,,,,,,,,,,,-255,255,270,270,,270,82.5,D,Raw,No,Pro Juniors 20-23,23
1,Aleksey Nikulin,Алексей Никулин,M,80.1,,,,,,,,,,,300,-310,-310,300,,300,82.5,D,Raw,No,Pro Open,35
1,Vladislav Zolotukhin,Владислав Золотухин,M,83.9,,,,,,,,,,,137.5,-147.5,-147.5,137.5,,137.5,90,D,Raw,No,Pro Teen 15-19,16
1,Sergey Surkov,Сергей Сурков,M,89.7,,,,,,,,,,,270,285,-300,285,,285,90,D,Raw,No,Pro Open,32
1,Vladimir Zhidyaev,Владимир Жидяев,M,85.2,,,,,,,,,,,160,,,160,,160,90,D,Raw,No,Pro Masters 45-49,48
1,Aleksandr Tarakin,Александр Таракин,M,99.5,,,,,,,,,,,330,350,-355,350,,350,100,D,Raw,No,Pro Open,32
2,Igor Parinov,Игорь Паринов,M,98.2,,,,,,,,,,,252.5,-272.5,-272.5,252.5,,252.5,100,D,Raw,No,Pro Open,34
1,Andrey Gerun,Андрей Герун,M,95.3,,,,,,,,,,,190,210,225,225,,225,100,D,Raw,No,Pro Masters 45-49,47
1,Vladimir Makarov,Владимир Макаров,M,96,,,,,,,,,,,-150,150,160,160,,160,100,D,Raw,No,Pro Masters,71
1,Eldar Salakhetdinov,Эльдар Салахетдинов,M,107.2,,,,,,,,,,,295,-300,-300,295,,295,110,D,Raw,No,Pro Teen 15-19,19
1,Aleksey Moskvichyov,Алексей Москвичёв,M,116.2,,,,,,,,,,,375,385,-392.5,385,,385,125,D,Raw,No,Pro Open,36
2,Vladimir Marchenko,Владимир Марченко,M,119.1,,,,,,,,,,,360,380,-385,380,,380,125,D,Raw,No,Pro Open,33
3,Andrey Semenkov,Андрей Семенков,M,116.7,,,,,,,,,,,315,335,,335,,335,125,D,Raw,No,Pro Open,33
4,Viktor Kapralov,Виктор Капралов,M,115.7,,,,,,,,,,,-260,260,275,275,,275,125,D,Raw,No,Pro Open,36
1,Aleksey Volzhskiy,Алексей Волжский,M,102.9,,,,,,,,,,,215,,,215,,215,110,D,Single-ply,No,Pro Open,33
1,Sergey Averkin,Сергей Аверкин,M,108.5,,,,,,165,-170,-172.5,165,,,,,,,165,110,B,Raw,No,Pro Masters 40-44,41
1,Evgeniy Avdulov,Евгений Авдулов,M,115,,,,,,200,,,200,,,,,,,200,120,B,Raw,No,Pro Open,34
1,Aleksandr Vorobyov,Александр Воробьёв,M,117.3,,,,,,170,175,180,180,,,,,,,180,120,B,Raw,No,Pro Masters 45-49,46
1,Arif Makhmudov,Ариф Махмудов,M,135.4,,,,,,205,210,-215,210,,,,,,,210,140,B,Raw,No,Pro Open,55
1,Andrey Smirnov,Андрей Смирнов,M,84.5,,,,,,105,110,115,115,,,,,,,115,90,B,Raw,No,Pro Open,35
