Name,Age,Equipment,Sex,Event,BodyweightKg,WeightClassKg,Bench1Kg,Bench2Kg,Bench3Kg,Bench4Kg,Best3BenchKg,TotalKg,Place,Division
Adrian Zwann,75,Raw,M,B,87.1,90,75,80,82.5,-85,82.5,82.5,1,M-OR
Stelian Tchapkanski,27,Raw,M,B,104,110,155,165,170,,170,170,1,M-OR
Laird Ross,22,Multi-ply,M,B,91.5,100,210,220,-230,,220,220,1,M-OE
