Division,WeightClassKg,Place,Name,Team,BodyweightKg,Best3SquatKg,Best3BenchKg,Best3DeadliftKg,TotalKg,Equipment,Event,Sex
Boys,52,1,Octavio Vargas,Hamshire-Fannett,51.71,124.74,58.97,122.47,306.17,Single-ply,SBD,M
Boys,52,2,Gavin Jackson,Orangefield,51.71,83.91,43.09,79.38,206.38,Single-ply,SBD,M
Boys,67.5,1,Hunter Angelo,Orange Little Cypress-Mauriceville,67.13,201.85,106.59,199.58,508.02,Single-ply,SBD,M
Boys,67.5,2,Kazul Wada,Hamshire-Fannett,67.13,142.88,83.91,145.15,371.95,Single-ply,SBD,M
Boys,67.5,3,Jacob Gulliot,Orangefield,67.13,145.15,74.84,142.88,362.87,Single-ply,SBD,M
Boys,67.5,4,Quy Tsan,Orangefield,67.13,131.54,79.38,147.42,358.34,Single-ply,SBD,M
Boys,67.5,5,Brett Keele,Orange Little Cypress-Mauriceville,67.13,124.74,83.91,138.35,347,Single-ply,SBD,M
Boys,67.5,6,Adrian Curtis,Hamshire-Fannett,67.13,136.08,74.84,133.81,344.73,Single-ply,SBD,M
Boys,67.5,7,Sean Bond,Hamshire-Fannett,67.13,136.08,70.31,136.08,342.46,Single-ply,SBD,M
Boys,67.5,8,Michael Revia,Hamshire-Fannett,67.13,117.93,74.84,102.06,294.84,Single-ply,SBD,M
Boys,67.5,9,Matthew Joyner,Hamshire-Fannett,67.13,102.06,,115.67,217.72,Single-ply,SD,M
Boys,67.5,DQ,Jamrcus Ross,West Orange-Stark,67.13,,,,,Single-ply,SBD,M
Boys,75,1,Dillon Tarver,Silsbee,74.84,181.44,86.18,165.56,433.18,Single-ply,SBD,M
Boys,75,2,Mason Stutes,Hamshire-Fannett,74.84,158.76,83.91,181.44,424.11,Single-ply,SBD,M
Boys,75,3,Christian Louvier,Orangefield,74.84,147.42,90.72,163.29,401.43,Single-ply,SBD,M
Boys,75,4,Brant Hyatt,Orangefield,74.84,145.15,86.18,154.22,385.55,Single-ply,SBD,M
Boys,75,5,Steven Wilkerson,West Orange-Stark,74.84,113.4,90.72,154.22,358.34,Single-ply,SBD,M
Boys,75,6,Keaton Rogers,Hamshire-Fannett,74.84,108.86,,104.33,213.19,Single-ply,SD,M
Boys,82.5,1,Keyshawn Holman,West Orange-Stark,82.1,222.26,122.47,249.48,594.21,Single-ply,SBD,M
Boys,82.5,2,Victor Davila,Orange Little Cypress-Mauriceville,82.1,199.58,120.2,204.12,523.9,Single-ply,SBD,M
Boys,82.5,3,Ethan McKay,Orange Little Cypress-Mauriceville,82.1,183.7,113.4,185.97,483.08,Single-ply,SBD,M
Boys,82.5,4,Jerrick Spencer,West Orange-Stark,82.1,154.22,99.79,204.12,458.13,Single-ply,SBD,M
Boys,82.5,5,Adam Carrell,Silsbee,82.1,156.49,108.86,183.7,449.06,Single-ply,SBD,M
Boys,82.5,6,David Fear,Orangefield,82.1,136.08,97.52,167.83,401.43,Single-ply,SBD,M
Boys,82.5,7,Joseph Aeur,Orangefield,82.1,142.88,95.25,161.03,399.16,Single-ply,SBD,M
Boys,82.5,8,Trip Leger,Orangefield,82.1,129.27,72.57,138.35,340.19,Single-ply,SBD,M
Boys,90,DQ,Alex Reed,Orange Little Cypress-Mauriceville,89.81,,,,,Single-ply,SBD,M
Boys,100,1,Paul Ivory,West Orange-Stark,99.79,190.51,97.52,219.99,508.02,Single-ply,SBD,M
Boys,100,2,Lucas Russell,Orange Little Cypress-Mauriceville,99.79,197.31,104.33,201.85,503.49,Single-ply,SBD,M
Boys,100,3,Trent Brown,Orange Little Cypress-Mauriceville,99.79,188.24,106.59,195.04,489.88,Single-ply,SBD,M
Boys,100,4,Ja'Qualan Coleman,West Orange-Stark,99.79,154.22,106.59,190.51,451.32,Single-ply,SBD,M
Boys,100,5,Cody Duncan,Silsbee,99.79,165.56,97.52,170.1,433.18,Single-ply,SBD,M
Boys,100,6,Malik Griffin,Orange Little Cypress-Mauriceville,99.79,156.49,106.59,167.83,430.91,Single-ply,SBD,M
Boys,100,7,Robert Finch,Silsbee,99.79,154.22,102.06,149.69,405.97,Single-ply,SBD,M
Boys,100,8,Xander Steele,Orangefield,99.79,120.2,90.72,142.88,353.8,Single-ply,SBD,M
Boys,110,1,Marquell Hale,Silsbee,109.77,231.33,156.49,240.4,628.23,Single-ply,SBD,M
Boys,110,2,Daniel Grant,Silsbee,109.77,199.58,136.08,226.8,562.45,Single-ply,SBD,M
Boys,110,3,Alvaro Andrade,Hamshire-Fannett,109.77,217.72,124.74,195.04,537.51,Single-ply,SBD,M
Boys,110,4,Bobby Rash,West Orange-Stark,109.77,176.9,124.74,185.97,487.61,Single-ply,SBD,M
Boys,110,5,Quincy Ledet,West Orange-Stark,109.77,163.29,97.52,183.7,444.52,Single-ply,SBD,M
Boys,125,1,Colt LeBleu,Orange Little Cypress-Mauriceville,124.74,249.48,147.42,226.8,623.69,Single-ply,SBD,M
Boys,125,2,Grant LaCour,Orange Little Cypress-Mauriceville,124.74,213.19,127.01,217.72,557.92,Single-ply,SBD,M
Boys,125,3,Hayden Glenn,Silsbee,124.74,204.12,131.54,176.9,512.56,Single-ply,SBD,M
Boys,125,4,Dakota Ard,Silsbee,124.74,199.58,102.06,197.31,498.95,Single-ply,SBD,M
Boys,125,5,Dakota Bell,Hamshire-Fannett,124.74,213.19,113.4,172.37,498.95,Single-ply,SBD,M
Boys,125,6,Jordan Garrett,West Orange-Stark,124.74,158.76,104.33,197.31,460.4,Single-ply,SBD,M
Boys,125,7,Ja'Corry Brady,West Orange-Stark,124.74,172.37,102.06,172.37,446.79,Single-ply,SBD,M
Boys,125,8,Stone Kiker,Hamshire-Fannett,124.74,163.29,92.99,158.76,415.04,Single-ply,SBD,M
Boys,125+,1,Jeremiah Armstrong,Orange Little Cypress-Mauriceville,127.01,326.59,206.38,226.8,759.77,Single-ply,SBD,M
Boys,125+,2,Aaron Galitz,Orangefield,127.01,235.87,163.29,215.46,614.62,Single-ply,SBD,M
Boys,125+,3,Luke Padilla,Orangefield,127.01,204.12,151.95,204.12,560.19,Single-ply,SBD,M
Boys,125+,4,Jonathan Hageon,Silsbee,127.01,217.72,117.93,210.92,546.58,Single-ply,SBD,M
Boys,125+,5,Adrick Mims,West Orange-Stark,127.01,181.44,95.25,181.44,458.13,Single-ply,SBD,M
Boys,125+,6,Carlos Rodriguez,Silsbee,127.01,149.69,88.45,145.15,383.29,Single-ply,SBD,M
Boys,125+,7,Brandon Kelly,Silsbee,127.01,183.7,122.47,,306.17,Single-ply,SB,M
