Division,WeightClassKg,Place,Name,Team,BodyweightKg,Best3SquatKg,Best3BenchKg,Best3DeadliftKg,TotalKg,Equipment,Event,Sex
Boys,52,1,Chandler Prinka,Malakoff,49.26,83.91,52.16,113.4,249.48,Single-ply,SBD,M
Boys,52,2,Will Hooten,Red Oak Life,48.26,83.91,45.36,92.99,222.26,Single-ply,SBD,M
Boys,52,DQ,AJ Polk,Fairfield,47.9,106.59,,,,Single-ply,SBD,M
Boys,56,1,Corbin Donoho,Corsicana Mildred,54.98,111.13,63.5,124.74,299.37,Single-ply,SBD,M
Boys,56,2,Travis Berry,Blooming Grove,55.52,102.06,65.77,102.06,269.89,Single-ply,SBD,M
Boys,56,DQ,Seth Shipp,Rice,53.43,129.27,,,,Single-ply,SBD,M
Boys,60,1,Jordan Ramirez,Palmer,59.78,163.29,86.18,165.56,415.04,Single-ply,SBD,M
Boys,60,2,Chase Kirby,Dawson,58.79,149.69,79.38,154.22,383.29,Single-ply,SBD,M
Boys,60,3,Juan Hernandez #4,Palmer,56.97,138.35,77.11,151.95,367.41,Single-ply,SBD,M
Boys,60,4,Zaahid Abdullah,Red Oak Life,57.88,124.74,74.84,138.35,337.93,Single-ply,SBD,M
Boys,60,5,Luis Laborador,Kerens,59.78,111.13,79.38,140.61,331.12,Single-ply,SBD,M
Boys,60,6,Alex Rodriguez,Fairfield,57.33,136.08,68.04,113.4,317.51,Single-ply,SBD,M
Boys,60,7,Lucas Zepeda,Red Oak Life,57.24,113.4,61.23,136.08,310.71,Single-ply,SBD,M
Boys,60,8,Jose Silva,Palmer,59.51,102.06,65.77,124.74,292.57,Single-ply,SBD,M
Boys,67.5,1,David Dilbeck,Blooming Grove,66.41,151.95,111.13,181.44,444.52,Single-ply,SBD,M
Boys,67.5,2,DeMarcus McQurter,Hubbard,64.23,147.42,90.72,163.29,401.43,Single-ply,SBD,M
Boys,67.5,3,Will Ferlet,Dawson,61.51,142.88,81.65,149.69,374.21,Single-ply,SBD,M
Boys,67.5,4,Tyson Ramirez,Palmer,65.23,138.35,68.04,161.03,367.41,Single-ply,SBD,M
Boys,67.5,5,Jesse Heath,Corsicana Mildred,62.23,133.81,79.38,145.15,358.34,Single-ply,SBD,M
Boys,67.5,6,Manuel Villages,Blooming Grove,60.87,104.33,86.18,140.61,331.12,Single-ply,SBD,M
Boys,67.5,7,Juan Perez,Rice,60.33,127.01,72.57,127.01,326.59,Single-ply,SBD,M
Boys,67.5,DQ,Chris Calloway,Red Oak Life,60.78,120.2,65.77,,,Single-ply,SBD,M
Boys,67.5,DQ,Kyle Payne,Hubbard,65.41,74.84,,,,Single-ply,SBD,M
Boys,67.5,DQ,Michael McCarter,Blooming Grove,59.96,106.59,,,,Single-ply,SBD,M
Boys,67.5,DQ,Jose Rodriguez,Fairfield,65.68,136.08,,,,Single-ply,SBD,M
Boys,67.5,DQ,Mason Ramon,Red Oak Life,65.32,120.2,,,,Single-ply,SBD,M
Boys,75,1,Nick Mooneyham,Fairfield,71.03,170.1,97.52,188.24,455.86,Single-ply,SBD,M
Boys,75,2,Elder Arellano,Rice,71.76,158.76,106.59,172.37,437.72,Single-ply,SBD,M
Boys,75,3,Damicheal Harvey,Kerens,70.76,167.83,83.91,167.83,419.57,Single-ply,SBD,M
Boys,75,4,Fallon Little,Corsicana Mildred,71.76,147.42,81.65,176.9,405.97,Single-ply,SBD,M
Boys,75,5,Dustin Thompson,Corsicana Mildred,73.39,154.22,77.11,163.29,394.63,Single-ply,SBD,M
Boys,75,6,Dalton McCluney,Corsicana Mildred,67.59,142.88,72.57,158.76,374.21,Single-ply,SBD,M
Boys,75,7,Cody McCaleb,Kerens,72.12,133.81,70.31,140.61,344.73,Single-ply,SBD,M
Boys,75,8,Jason Hernandez,Malakoff Cross Roads,68.31,111.13,83.91,147.42,342.46,Single-ply,SBD,M
Boys,75,9,Nate Pair,Rice,72.3,124.74,54.43,136.08,315.25,Single-ply,SBD,M
Boys,82.5,1,Dylan Myers,Rice,80.1,188.24,120.2,170.1,478.54,Single-ply,SBD,M
Boys,82.5,2,Jed Wout,Blooming Grove,80.74,161.03,106.59,167.83,435.45,Single-ply,SBD,M
Boys,82.5,3,Shane Carroll,Red Oak Life,80.92,145.15,79.38,163.29,387.82,Single-ply,SBD,M
Boys,82.5,4,Jacob Castro,Malakoff,80.29,142.88,70.31,172.37,385.55,Single-ply,SBD,M
Boys,82.5,5,Caleb Adams,Malakoff,81.83,124.74,86.18,161.03,371.95,Single-ply,SBD,M
Boys,82.5,6,Steven Stagg,Hubbard,81.28,138.35,79.38,133.81,351.53,Single-ply,SBD,M
Boys,82.5,7,Kyler Dalrymple,Malakoff,79.56,120.2,77.11,151.95,349.27,Single-ply,SBD,M
Boys,82.5,8,Johnathan Hernandez,Malakoff,75.66,120.2,83.91,142.88,347,Single-ply,SBD,M
Boys,90,1,Logan Blake,Red Oak Life,87.18,231.33,131.54,183.7,546.58,Single-ply,SBD,M
Boys,90,2,Brian Black,Palmer,83.1,185.97,108.86,192.78,487.61,Single-ply,SBD,M
Boys,90,3,Brandon Amaya,Fairfield,86.36,204.12,108.86,165.56,478.54,Single-ply,SBD,M
Boys,90,4,Larry Coker,Malakoff,87.63,181.44,106.59,172.37,460.4,Single-ply,SBD,M
Boys,90,5,Daniel Briones,Rice,86.73,181.44,102.06,170.1,453.59,Single-ply,SBD,M
Boys,90,6,Dee Robinson,Rice,88.27,188.24,79.38,181.44,449.06,Single-ply,SBD,M
Boys,90,7,Bear Williams,Corsicana Mildred,88.99,167.83,83.91,147.42,399.16,Single-ply,SBD,M
Boys,90,8,Dylan Martin,Wortham,83.46,129.27,77.11,158.76,365.14,Single-ply,SBD,M
Boys,100,1,Jacob Gomez,Fairfield,99.34,260.82,165.56,226.8,653.17,Single-ply,SBD,M
Boys,100,2,Enrique Zamora,Corsicana Mildred,98.7,249.48,136.08,215.46,601.01,Single-ply,SBD,M
Boys,100,3,Johnny Bustamante,Blooming Grove,91.63,204.12,113.4,190.51,508.02,Single-ply,SBD,M
Boys,100,4,Quenden Darby,Red Oak Life,96.07,206.38,97.52,192.78,496.68,Single-ply,SBD,M
Boys,100,5,Matt Mooneyham,Fairfield,98.52,165.56,142.88,181.44,489.88,Single-ply,SBD,M
Boys,100,6,Justin Horn,Corsicana Mildred,92.62,181.44,102.06,174.63,458.13,Single-ply,SBD,M
Boys,100,7,Justin Disotall,Malakoff Cross Roads,98.79,163.29,102.06,188.24,453.59,Single-ply,SBD,M
Boys,100,8,Pablo Pachuca,Kerens,91.72,165.56,88.45,179.17,433.18,Single-ply,SBD,M
Boys,100,9,Zane Gifford,Rice,98.16,163.29,83.91,185.97,433.18,Single-ply,SBD,M
Boys,100,10,Bryan Sifers,Malakoff Cross Roads,92.8,142.88,113.4,165.56,421.84,Single-ply,SBD,M
Boys,100,11,Jason Garcia,Blooming Grove,91.99,145.15,92.99,163.29,401.43,Single-ply,SBD,M
Boys,100,12,Brenden McClintock,Malakoff,90.26,142.88,81.65,154.22,378.75,Single-ply,SBD,M
Boys,100,13,Lincoln Rodgers,Malakoff,94.71,145.15,81.65,142.88,369.68,Single-ply,SBD,M
Boys,100,DQ,David Ramirez,Red Oak Life,89.99,172.37,108.86,,,Single-ply,SBD,M
Boys,110,1,Cole Beddingfield,Fairfield,104.6,274.42,151.95,226.8,653.17,Single-ply,SBD,M
Boys,110,2,Eli Crawford,Kerens,107.23,251.74,124.74,242.67,619.15,Single-ply,SBD,M
Boys,110,3,Austin Hale,Fairfield,104.33,226.8,122.47,195.04,544.31,Single-ply,SBD,M
Boys,110,4,Jax Donohoo,Fairfield,104.24,204.12,117.93,208.65,530.7,Single-ply,SBD,M
Boys,110,5,Payton Lowrie,Malakoff,102.24,204.12,131.54,185.97,521.63,Single-ply,SBD,M
Boys,110,6,Zack Sanders,Malakoff,104.6,204.12,102.06,204.12,510.29,Single-ply,SBD,M
Boys,110,7,Shelby Wilder,Red Oak Life,108.77,190.51,106.59,165.56,462.66,Single-ply,SBD,M
Boys,110,8,Logan Salisbury,Wortham,105.69,136.08,102.06,183.7,421.84,Single-ply,SBD,M
Boys,110,9,Roy Tapley,Dawson,102.51,163.29,90.72,158.76,412.77,Single-ply,SBD,M
Boys,110,10,Andres Ulloa,Rice,109.41,147.42,90.72,156.49,394.63,Single-ply,SBD,M
Boys,110,DQ,Hunter Turner,Wortham,100.06,120.2,79.38,,,Single-ply,SBD,M
Boys,125,1,Jeremy Wood,Fairfield,113.94,249.48,145.15,195.04,589.67,Single-ply,SBD,M
Boys,125,2,Timothy Collums,Corsicana Mildred,111.49,183.7,129.27,181.44,494.42,Single-ply,SBD,M
Boys,125,3,Dakota Greer,Dawson,112.49,167.83,97.52,154.22,419.57,Single-ply,SBD,M
Boys,125,4,Rylan Wade,Dawson,115.21,158.76,86.18,142.88,387.82,Single-ply,SBD,M
Boys,125,5,Ben Barlow,Rice,123.01,120.2,58.97,111.13,290.3,Single-ply,SBD,M
Boys,125+,1,Cole Brumbelow,Kerens,148.32,167.83,95.25,181.44,444.52,Single-ply,SBD,M
Boys,125+,2,Colton Deal,Red Oak Life,151.14,147.42,92.99,161.03,401.43,Single-ply,SBD,M
