Name,Place,Division,Sex,Equipment,State,Age,BodyweightKg,WeightClassKg,Best3SquatKg,Best3BenchKg,Best3DeadliftKg,TotalKg,Event
Toni Lynn Kirby,1,Open,F,Raw,GA,25,59.87,60,100,62.5,122.5,285,SBD
Monique Jackson,1,Open,F,Raw,GA,42,64.23,67.5,137.5,115,182.5,435,SBD
Brittney Hoots,2,Open,F,Raw,GA,26,65.23,67.5,100,45,125,270,SBD
Brandon Donley,1,Junior 18-19,M,Raw,GA,19,72.48,75,175,85,225,485,SBD
Nicholas Whitsel,1,Junior 18-19,M,Raw,PA,19,87.54,90,185,150,262.5,597.5,SBD
James Rowe,1,Junior 18-19,M,Raw,GA,19,107.77,110,220,142.5,207.5,570,SBD
Phillip Dodson,DQ,Junior 18-19,M,Raw,PA,19,106.05,110,200,-170,292.5,,SBD
Ryan Skagen,1,Open,M,Raw,AL,30,80.38,82.5,175,97.5,215,487.5,SBD
Jason Guzman,2,Open,M,Raw,GA,38,81.37,82.5,160,105,187.5,452.5,SBD
Oakley Walraven,1,Open,M,Raw,GA,29,87.45,90,187.5,160,197.5,545,SBD
Cardell Oliver,1,Open,M,Raw,GA,35,97.89,100,257.5,192.5,310,760,SBD
Nick Fleischer,2,Open,M,Raw,GA,34,96.34,100,187.5,145,217.5,550,SBD
Chip Edalgo,1,Open,M,Raw,GA,47,109.77,110,287.5,192.5,305,785,SBD
James Rowe,2,Open,M,Raw,GA,19,107.77,110,220,142.5,207.5,570,SBD
Jason Banks,1,Open,M,Raw,GA,34,134.72,140,232.5,182.5,282.5,697.5,SBD
Josh Laster,2,Open,M,Raw,AL,31,138.89,140,182.5,105,200,487.5,SBD
Wil Bass,1,Open,M,Raw,GA,23,181.07,140+,227.5,135,237.5,600,SBD
Eldon Smith,2,Open,M,Raw,GA,50,141.52,140+,202.5,147.5,182.5,532.5,SBD
Jason Guzman,1,Submaster 35-39,M,Raw,GA,38,81.37,82.5,160,105,187.5,452.5,SBD
Cardell Oliver,1,Submaster 35-39,M,Raw,GA,35,97.89,100,257.5,192.5,310,760,SBD
Eldon Smith,1,Master 50-54,M,Raw,GA,50,141.52,140+,202.5,147.5,182.5,532.5,SBD
Michelle Coile,1,Open,F,Wraps,GA,46,73.75,75,155,95,147.5,397.5,SBD
Mellissa Benson,1,Submaster 35-39,F,Wraps,GA,38,57.52,60,85,60,120,265,SBD
Michelle Coile,1,Master 45-49,F,Wraps,GA,46,73.75,75,155,95,147.5,397.5,SBD
Tyler Cummings,1,Junior 20-23,M,Wraps,GA,22,108.77,110,302.5,205,302.5,810,SBD
Nick Althen,1,Junior 20-23,M,Wraps,GA,23,124.28,125,260,162.5,272.5,695,SBD
Phil Duke Jr,1,Open,M,Wraps,AL,27,74.66,75,182.5,135,215,532.5,SBD
Colin Evans,1,Open,M,Wraps,GA,26,89.81,90,277.5,215,255,747.5,SBD
Shane Bean,2,Open,M,Wraps,GA,30,89.90,90,192.5,162.5,227.5,582.5,SBD
Jed Tiller,3,Open,M,Wraps,GA,29,89.18,90,192.5,130,230,552.5,SBD
Patrick Curtis,DQ,Open,M,Wraps,GA,26,89.81,90,235,,295,,SBD
Justin Bethune,1,Open,M,Wraps,GA,26,96.34,100,307.5,195,307.5,810,SBD
Michael Howell,1,Open,M,Wraps,GA,31,120.66,125,335,200,345,880,SBD
Jeremy Rice,1,Submaster 35-39,M,Wraps,GA,37,99.34,100,170,137.5,200,507.5,SBD
Dwon Johnson,1,Submaster 35-39,M,Wraps,GA,38,181.53,140+,357.5,175,305,837.5,SBD
Gary Johnson,1,Master 60-64,M,Wraps,AL,62,73.94,75,92.5,60,125,277.5,SBD
Brant Bishop,1,Master 40-44,M,Wraps,AL,44,106.23,110,250,167.5,240,657.5,SBD
Matt Maini,1,Master 45-49,M,Wraps,AL,45,109.23,110,162.5,137.5,230,530,SBD
Erik Hansen,1,Master 50-54,M,Wraps,AL,52,107.50,110,177.5,145,185,507.5,SBD
Mike Doster,DQ,Master 65-69,M,Wraps,GA,66,104.78,110,-102.5,130,192.5,,SBD
Tracy Goodwin,1,Master 40-44,F,Raw,GA,41,127.37,90+,,107.5,,107.5,B
Nicholas Whitsel,1,Junior 18-19,M,Raw,PA,19,87.54,90,,150,,150,B
Hunter Zuchelli,1,Junior 13-15,M,Raw,AL,13,107.32,110,,67.5,,67.5,B
Julian Barton,1,Junior 20-23,M,Raw,GA,23,112.49,125,,170,,170,B
Shane Bean,1,Open,M,Raw,GA,30,89.90,90,,162.5,,162.5,B
Tony Evans,1,Open,M,Raw,GA,29,92.99,100,,215,,215,B
Joseph Walraven,2,Open,M,Raw,GA,32,98.97,100,,187.5,,187.5,B
Joel Caldwell,1,Submaster 35-39,M,Raw,GA,39,98.34,100,,192.5,,192.5,B
Payse Puckett,1,Master 40-44,M,Raw,GA,41,99.34,100,,165,,165,B
James Howell,1,Master 70-74,M,Raw,GA,70,96.16,100,,110,,110,B
Emmitt Goodwin,1,Master 40-44,M,Raw,GA,43,167.38,140+,,125,,125,B
James Booker,1,Master 50-54,M,Raw,GA,50,146.06,140+,,220,,220,B
Tony Carlino,1,Open,M,Single-ply,GA,26,99.88,100,,307.5,,307.5,B
Darryl Zuchelli,1,Submaster 35-39,M,Single-ply,AL,38,103.69,110,,232.5,,232.5,B
Nicholas Whitsel,1,Junior 18-19,M,Raw,PA,19,87.54,90,,,262.5,262.5,D
Hunter Zuchelli,1,Junior 13-15,M,Raw,AL,13,107.32,110,,,125,125,D
Phillip Dodson,1,Junior 18-19,M,Raw,PA,19,106.05,110,,,292.5,292.5,D
Julian Barton,1,Junior 20-23,M,Raw,GA,23,112.49,125,,,290,290,D
Ryan Skagen,1,Open,M,Raw,AL,30,80.38,82.5,,,215,215,D
Patrick Curtis,1,Open,M,Raw,GA,26,89.81,90,,,295,295,D
Shane Bean,2,Open,M,Raw,GA,30,89.90,90,,,227.5,227.5,D
Jason Banks,1,Open,M,Raw,GA,34,134.72,140,,,282.5,282.5,D
Payse Puckett,1,Master 40-44,M,Raw,GA,41,99.34,100,,,290,290,D
