Place,Name,State,WeightClassKg,BodyweightKg,Age,Best3SquatKg,Best3BenchKg,Best3DeadliftKg,TotalKg,Sex,Division,Equipment,Event,Tested,Squat4Kg,Bench4Kg,Deadlift4Kg
1,Madeleine McElfresh,VA,56,55.3,21,92.5,60,120,272.5,F,Junior 20-23,Raw,SBD,Yes,,,
1,Angelina Elise Santillo,VA,60,58.1,15,75,47.5,115,237.5,F,Junior 13-15,Raw,SBD,Yes,,,
1,Victoria Krone,VA,67.5,66.6,19,102.5,57.5,112.5,272.5,F,Junior 18-19,Raw,SBD,Yes,,,
1,Hannah Kincaid,VA,75,73.9,21,105,62.5,132.5,300,F,Junior 20-23,Raw,SBD,Yes,,,
1,Whitney Farrell,VA,82.5,80.6,15,97.5,45,125,267.5,F,Junior 13-15,Raw,SBD,Yes,,,
1,Madeleine McElfresh,VA,56,55.3,21,92.5,60,120,272.5,F,Open,Raw,SBD,Yes,,,
1,Shane Wallace,NJ,60,59,33,127.5,77.5,175,380,F,Open,Raw,SBD,Yes,,,
2,Catherine Hyland,VA,60,59.8,25,102.5,70,137.5,310,F,Open,Raw,SBD,Yes,,,
3,Heather Anthony,VA,60,57.7,29,85,50,127.5,262.5,F,Open,Raw,SBD,Yes,,,
4,Andi Cantrell,VA,60,58.2,30,82.5,45,107.5,235,F,Open,Raw,SBD,Yes,,,
1,Sarah Galliano,MO,67.5,60.4,24,145,80,160,385,F,Open,Raw,SBD,Yes,,,
2,Jill Obaugh,VA,67.5,65.9,36,110,55,127.5,292.5,F,Open,Raw,SBD,Yes,,,
3,Dianna Burkholder,VA,67.5,67,33,92.5,47.5,137.5,277.5,F,Open,Raw,SBD,Yes,,,
4,Katie Fertig,VA,67.5,66.2,25,90,47.5,110,247.5,F,Open,Raw,SBD,Yes,,,
5,Jeanne Murdock,VA,67.5,65.2,65,62.5,52.5,107.5,222.5,F,Open,Raw,SBD,Yes,,,
1,Caiti Vera,VA,75,71.2,26,112.5,65,147.5,325,F,Open,Raw,SBD,Yes,,,
2,Becki Stenger,VA,75,71,31,115,57.5,125,297.5,F,Open,Raw,SBD,Yes,,,
1,Raven Sullivan,VA,82.5,80.2,26,140,72.5,170,382.5,F,Open,Raw,SBD,Yes,,,
1,Ogechi Akalegbere,MD,90+,96.2,30,210,107.5,200,517.5,F,Open,Raw,SBD,Yes,,,
2,Makala Corbett,VA,90+,123.8,24,127.5,87.5,147.5,362.5,F,Open,Raw,SBD,Yes,,,
1,Jill Obaugh,VA,67.5,65.9,36,110,55,127.5,292.5,F,Submaster 35-39,Raw,SBD,Yes,,,
1,Jeanne Murdock,VA,67.5,65.2,65,62.5,52.5,107.5,222.5,F,Master 65-69,Raw,SBD,Yes,,,
1,Christina Carroll,VA,75,74.4,42,117.5,57.5,130,305,F,Master 40-44,Raw,SBD,Yes,,,
1,Keli Hamman,VA,82.5,81.3,40,102.5,55,142.5,300,F,Master 40-44,Raw,SBD,Yes,,,
1,Ann Hall,RI,82.5,81.6,49,112.5,60,137.5,310,F,Master 45-49,Raw,SBD,Yes,,,
1,Angel George,VA,90,86.6,45,115,52.5,155,322.5,F,Master 45-49,Raw,SBD,Yes,,,
1,Landon Kissell,VA,67.5,64.3,14,100,62.5,146,308.5,M,Junior 13-15,Raw,SBD,Yes,,,147.5
1,Zack Cavelli,VA,67.5,65.9,18,122.5,70,137.5,330,M,Junior 18-19,Raw,SBD,Yes,,,
1,Anthony Webster,VA,75,69.9,16,160,137.5,212.5,510,M,Junior 16-17,Raw,SBD,Yes,,,222.5
2,Galilee Kissell,VA,75,73.7,17,145,95,182.5,422.5,M,Junior 16-17,Raw,SBD,Yes,,,
1,Morgan Pitts,VA,75,74.3,23,212.5,127.5,192.5,532.5,M,Junior 20-23,Raw,SBD,Yes,,,
DQ,Jordan Woody,VA,82.5,82.1,21,,,227.5,,M,Junior 20-23,Raw,SBD,Yes,,,
1,Connor McDonald,MD,90,86.8,14,142.5,90,155,387.5,M,Junior 13-15,Raw,SBD,Yes,,92.5,160
2,August Basco,VA,90,88.9,15,117.5,72.5,145,335,M,Junior 13-15,Raw,SBD,Yes,,,
1,Jon Gray,VA,90,84,18,117.5,80,172.5,370,M,Junior 18-19,Raw,SBD,Yes,,,
1,Caleb Tincher,VA,90,88.8,23,242.5,147.5,320,710,M,Junior 20-23,Raw,SBD,Yes,,,
2,Jeffrey Harris II,VA,90,89.6,22,255.5,145,247.5,648,M,Junior 20-23,Raw,SBD,Yes,,,
1,Cory Hanifan,VA,100,99.5,17,167.5,110,190,467.5,M,Junior 16-17,Raw,SBD,Yes,,,
1,Jake French,VA,100,98.4,19,195,162.5,240,597.5,M,Junior 18-19,Raw,SBD,Yes,,167.5,
1,Colby Stinnett,VA,110,108,19,232.5,152.5,227.5,612.5,M,Junior 18-19,Raw,SBD,Yes,,,
1,Chris Craven,NC,125,116.9,22,185,142.5,210,537.5,M,Junior 20-23,Raw,SBD,Yes,,,
2,Bryce Jordan,VA,125,114.6,22,187.5,122.5,210,520,M,Junior 20-23,Raw,SBD,Yes,,,
1,Terry Ferguson,VA,67.5,67.3,21,177.5,130,195,502.5,M,Open,Raw,SBD,Yes,,,
1,Jawon Garrison,AL,82.5,79,30,290,190,285,765,M,Open,Raw,SBD,Yes,,,
2,Jeffrey Houska,MO,82.5,82.1,34,255,155,262.5,672.5,M,Open,Raw,SBD,Yes,,,
3,Micaiah Branch,WV,82.5,79.5,26,212.5,147.5,265,625,M,Open,Raw,SBD,Yes,,,
4,Nathan Smith,VA,82.5,81.2,24,190,125,212.5,527.5,M,Open,Raw,SBD,Yes,,,
5,Derek Harris,VA,82.5,81.4,25,162.5,130,200,492.5,M,Open,Raw,SBD,Yes,,,
1,Caleb Tincher,VA,90,88.8,23,242.5,147.5,320,710,M,Open,Raw,SBD,Yes,,,
2,Michael Walker #2,NJ,90,88.4,29,265,150,292.5,707.5,M,Open,Raw,SBD,Yes,,,
3,Damon Reynolds,VA,90,86.5,24,202.5,122.5,237.5,562.5,M,Open,Raw,SBD,Yes,,,
1,John Flynn,VA,100,94.7,30,240,150,260,650,M,Open,Raw,SBD,Yes,,,
2,Seth Riley,VA,100,97.1,25,230,160,245,635,M,Open,Raw,SBD,Yes,,,
3,Jon Clark,VA,100,91.2,28,212.5,145,255,612.5,M,Open,Raw,SBD,Yes,,,
1,Justin Jefferson,VA,110,107.8,27,235,155,282.5,672.5,M,Open,Raw,SBD,Yes,,,
2,Paul Panasci,VA,110,107.8,28,205,155,260,620,M,Open,Raw,SBD,Yes,,,
1,Brandon Dunivan,VA,125,111.1,25,212.5,117.5,225,555,M,Open,Raw,SBD,Yes,,,
1,Andrew Schroeder,VA,75,73.5,36,157.5,105,192.5,455,M,Submaster 35-39,Raw,SBD,Yes,,,
1,Khourey Royal,VA,140+,179.1,38,227.5,152.5,273,653,M,Submaster 35-39,Raw,SBD,Yes,,,
DQ,Caitlyn Walker,SC,44,,17,,,,,F,Junior 16-17,Wraps,SBD,Yes,,,
1,Skylar Stegall,SC,60,58.9,17,115,55,118,288,F,Junior 16-17,Wraps,SBD,Yes,120.5,,
1,Kristi-Ann Sives,NC,48,47.6,26,117.5,57.5,147.5,322.5,F,Open,Wraps,SBD,Yes,,,
1,Ian Owens,SC,60,58.4,15,142.5,67.5,158,368,M,Junior 13-15,Wraps,SBD,Yes,,,
1,Brent Jones,VA,60,57.8,22,127.5,87.5,175,390,M,Junior 20-23,Wraps,SBD,Yes,,,
1,Christopher Easler,SC,67.5,67,16,175,87.5,190,452.5,M,Junior 16-17,Wraps,SBD,Yes,,,
1,Will Wright,SC,75,73.7,15,165.5,95,185,445.5,M,Junior 13-15,Wraps,SBD,Yes,,,
1,Jesse Davis,VA,75,74.8,21,200,150,235,585,M,Junior 20-23,Wraps,SBD,Yes,,,
1,Andrew Larson,SC,90,86.2,16,180,75,207.5,462.5,M,Junior 16-17,Wraps,SBD,Yes,,,
1,Grayson Smith,SC,100,98.6,16,175,102.5,175,452.5,M,Junior 16-17,Wraps,SBD,Yes,,,
2,Wayne Fulbright,SC,100,96,16,165,80,187.5,432.5,M,Junior 16-17,Wraps,SBD,Yes,,,
1,Daniel Dixon,VA,100,92.5,23,252.5,165,240,657.5,M,Junior 20-23,Wraps,SBD,Yes,,,
1,Eli Z Phillips,SC,110,109.4,16,185,107.5,190,482.5,M,Junior 16-17,Wraps,SBD,Yes,,,
1,Sterling Harrison,VA,100,99.2,26,240,145,277.5,662.5,M,Open,Wraps,SBD,Yes,,,
1,Jimmy Kolb,VA,110,104,28,292.5,205,257.5,755,M,Open,Wraps,SBD,Yes,,,
2,Eli Z Phillips,SC,110,109.4,16,185,107.5,190,482.5,M,Open,Wraps,SBD,Yes,,,
1,Benjamin Williamson,VA,125,121,33,272.5,167.5,295,735,M,Open,Wraps,SBD,Yes,,,
1,Robert Foster,VA,140,136.8,29,310,170,247.5,727.5,M,Open,Wraps,SBD,Yes,,,
1,Spencer Mather,VA,140+,151.8,24,330,205,330,865,M,Open,Wraps,SBD,Yes,,,
1,Tim Fus,VA,100,99.2,47,215,145,207.5,567.5,M,Master 45-49,Wraps,SBD,Yes,,,
1,Lucas Pribble,VA,90,84.4,22,272.5,190,230,692.5,M,Junior 20-23,Single-ply,SBD,Yes,,,
1,Catherine Hyland,VA,60,59.8,25,,70,,70,F,Open,Raw,B,Yes,,,
1,Bryant Lewellyn,VA,140,139.8,28,,235,,235,M,Open,Raw,B,Yes,,,
1,Shane Clawson,TN,75,73.3,46,,135,,135,M,Master 45-49,Raw,B,Yes,,,
1,Tim Metcalf,NC,75,74.2,57,,107.5,,107.5,M,Master 55-59,Raw,B,Yes,,,
1,Bill Lindsey,VA,82.5,80.2,72,,107.5,,107.5,M,Master 70-74,Raw,B,Yes,,110,
1,Clifton Rhodes Jr,VA,110,103.5,43,,182.5,,182.5,M,Master 40-44,Raw,B,Yes,,,
DQ,Bill Gillespie,VA,140+,148.9,58,,,,,M,Open,Single-ply,B,Yes,,,
DQ,Bill Gillespie,VA,140+,148.9,58,,,,,M,Master 55-59,Single-ply,B,Yes,,,
1,Dianna Burkholder,VA,67.5,67,33,,,137.5,137.5,F,Open,Raw,D,Yes,,,
1,Chase Coleman,VA,75,74.5,17,,,217.5,217.5,M,Junior 16-17,Raw,D,Yes,,,227.5
1,Tim Metcalf,NC,75,74.2,57,,,142.5,142.5,M,Master 55-59,Raw,D,Yes,,,
1,Pete Miller,VA,90,83.7,75,,,140,140,M,Master 75-79,Raw,D,Yes,,,142.5
1,Chris Walter,VA,100,97.4,70,,,90,90,M,Master 70-74,Raw,D,Yes,,,
1,Ismael Palacios,VA,82.5,77.4,21,,95,130,225,M,Junior 20-23,Raw,BD,Yes,,,
