Place,Name,Division,BirthYear,BodyweightKg,Bench1Kg,Bench2Kg,Bench3Kg,Best3BenchKg,WeightClassKg,Sex,CyrillicName,Equipment,Deadlift1Kg,Deadlift2Kg,Deadlift3Kg,Best3DeadliftKg,Event,TotalKg
1,Natalya Zorina,O,1970,54.5,60,65,-70,65,56,F,Наталья Зорина,Raw,,,,,B,65
1,Ulyana Nikitina,PFM,1993,54.45,40,42.5,45,45,56,F,Ульяна Никитина,Raw,,,,,B,45
1,Mariya Ekimovskaya,O,1989,59.1,-50,50,-52.5,50,60,F,Мария Екимовская,Raw,,,,,B,50
1,Darya Iospa,T1,1997,66.6,50,-55,-55,50,67.5,F,Дарья Иоспа,Raw,,,,,B,50
1,Marina Sinotova,O,1988,66.5,60,65,70,70,67.5,F,Марина Синотова,Raw,,,,,B,70
2,Kristina Pozdran,O,1988,64.4,50,-55,-55,50,67.5,F,Кристина Поздрань,Raw,,,,,B,50
1,Sergey Samodurov,T1,2000,49.6,-45,45,47.5,47.5,52,M,Сергей Самодуров,Raw,,,,,B,47.5
2,Aleksey Grishanov,T1,2000,51.25,42.5,45,-47.5,45,52,M,Алексей Гришанов,Raw,,,,,B,45
DQ,Pavel Bezuglyy,J,1990,50.45,-90,-90,-90,,52,M,Павел Безуглый,Raw,,,,,B,
1,Sergei Karaziya,O,1987,55.1,155,160,-165,160,56,M,Сергей Каразия,Raw,,,,,B,160
1,Andrei Rudakov,T3,1996,63.7,102.5,107.5,110,110,67.5,M,Андрей Рудаков,Raw,,,,,B,110
DQ,Vladimir Domnin,T3,1995,57.2,-90,-90,-95,,67.5,M,Владимир Домнин,Raw,,,,,B,
1,Ivan Luchenkov,J,1991,62,125,-127.5,-127.5,125,67.5,M,Иван Лученков,Raw,,,,,B,125
DQ,Kantemir Khapokhov,J,1993,65.1,-105,-105,-110,,67.5,M,Кантемир Хапохов,Raw,,,,,B,
1,Dmitriy Savchenko,O,1980,64.3,100,110,-115,110,67.5,M,Дмитрий Савченко,Raw,,,,,B,110
1,Oleg Dvoynikov,M2,1960,64.85,97.5,100,102.5,102.5,67.5,M,Олег Двойников,Raw,,,,,B,102.5
1,Artur Sagadaev,PFM,1990,64,-115,-120,120,120,67.5,M,Артур Сагадаев,Raw,,,,,B,120
1,Ilya Kuvshinov,T1,1999,68.3,95,-100,102.5,102.5,75,M,Илья Кувшинов,Raw,,,,,B,102.5
1,Ilya Varshavskiy,J/O,1991,72.55,157.5,160,161,161,75,M,Илья Варшавский,Raw,,,,,B,161
2,Oleg Gatilov,J,1991,73.2,117.5,-125,-125,117.5,75,M,Олег Гатилов,Raw,,,,,B,117.5
2,Sergey Kucheryavenko,O,1982,73.9,145,147.5,150,150,75,M,Сергей Кучерявенко,Raw,,,,,B,150
3,Andrey Kostin,O,1989,73.1,117.5,122.5,125,125,75,M,Андрей Костин,Raw,,,,,B,125
1,Vyacheslav Makarov,PFM,1975,73.75,120,130,-132.5,130,75,M,Вячеслав Макаров,Raw,,,,,B,130
2,Vladislav Eroshenko,PFM,1993,73.65,115,120,-125,120,75,M,Владислав Ерошенко,Raw,,,,,B,120
3,Aleksandr Volchenkov,PFM,1984,73.9,-115,120,-125,120,75,M,Александр Волченков,Raw,,,,,B,120
1,Evgeniy Korotonozhkin,J,1991,81.7,150,-160,-160,150,82.5,M,Евгений Коротоножкин,Raw,,,,,B,150
2,Zamil Valeev,J,1994,79.4,132.5,137.5,-142.5,137.5,82.5,M,Замиль Валеев,Raw,,,,,B,137.5
3,Kirill Sukharev,J,1993,81.9,130,135,-137.5,135,82.5,M,Кирилл Сухарев,Raw,,,,,B,135
1,Ilya Pankratov,O,1986,80.95,202.5,207.5,-212.5,207.5,82.5,M,Илья Панкратов,Raw,,,,,B,207.5
2,Viktor Volodin,O,1987,82.4,125,135,-145,135,82.5,M,Виктор Володин,Raw,,,,,B,135
3,Aleksandr Grishanov,O,1979,80.25,122.5,-132.5,132.5,132.5,82.5,M,Александр Гришанов,Raw,,,,,B,132.5
1,Eduard Sotnikov,M1,1967,82.2,155,160,162.5,162.5,82.5,M,Эдуард Сотников,Raw,,,,,B,162.5
2,Pavel Zhirnov,M1,1971,82.25,130,140,145,145,82.5,M,Павел Жирнов,Raw,,,,,B,145
1,Sergey Sivak,PFM,1979,78.85,140,145,150,150,82.5,M,Сергей Сивак,Raw,,,,,B,150
2,Mikhail Fedotov,PFM,1980,80.65,140,145,-150,145,82.5,M,Михаил Федотов,Raw,,,,,B,145
DQ,Ivan Shevchenko,T1,1997,89.2,-110,-110,-110,,90,M,Иван Шевченко,Raw,,,,,B,
1,Aleksandr Kolesnikov,J,1990,89.1,155,165,-170,165,90,M,Александр Колесников,Raw,,,,,B,165
1,Aleksandr Kolodko,O,1983,88.6,185,192.5,202.5,202.5,90,M,Александр Колодько,Raw,,,,,B,202.5
2,Farkhad Khudaverdiev,O,1981,88.55,-170,-170,170,170,90,M,Фархад Худавердиев,Raw,,,,,B,170
3,Andrey Pavlov,O,1987,89.4,-162.5,165,170,170,90,M,Андрій Павлов,Raw,,,,,B,170
4,Mikhail Saltanov,O,1981,88.9,160,-170,-170,160,90,M,Михаил Салтанов,Raw,,,,,B,160
5,Dmitriy Guselnikov,O,1988,89.1,-160,160,-170,160,90,M,Дмитрий Гусельников,Raw,,,,,B,160
6,Anton Fokin,O,1986,88,-150,-150,150,150,90,M,Антон Фокин,Raw,,,,,B,150
7,Pavel Gladyshev,O,1981,87.4,130,140,-145,140,90,M,Павел Гладышев,Raw,,,,,B,140
1,Igor Shinov,M1,1970,89.05,160,165,-167.5,165,90,M,Игорь Шинов,Raw,,,,,B,165
1,Gennadiy Bobrov,M2,1956,86.8,140,145,-152.5,145,90,M,Геннадий Бобров,Raw,,,,,B,145
1,Sergey Reprintsev,PFM,1992,86.2,155,-165,-165,155,90,M,Сергей Репринцев,Raw,,,,,B,155
2,Denis Lebedev,PFM,1993,83.7,130,140,-150,140,90,M,Денис Лебедев,Raw,,,,,B,140
1,Roman Terushkin,T3,1994,97.4,155,165,-172.5,165,100,M,Роман Терушкин,Raw,,,,,B,165
1,Igor Kostin,J,1991,94.1,180,190,-200,190,100,M,Игорь Костин,Raw,,,,,B,190
2,Yuriy Azin,J,1990,95.8,160,165,-172.5,165,100,M,Юрий Азин,Raw,,,,,B,165
3,Artem Pokamestov,J,1992,95.8,130,135,142.5,142.5,100,M,Артем Покаместов,Raw,,,,,B,142.5
DQ,Evgeniy Milovanov,J,1993,96.05,-180,-185,-185,,100,M,Евгений Милованов,Raw,,,,,B,
1,Alexandr Pagin,O,1978,91.4,170,-175,175,175,100,M,Александр Пагин,Raw,,,,,B,175
2,Ivan Evdokimov,O,1964,100,160,170,175,175,100,M,Иван Евдокимов,Raw,,,,,B,175
3,Igor Chernyavskiy,O,1984,97.8,155,157.55,162.5,162.5,100,M,Игорь Чернявский,Raw,,,,,B,162.5
4,Aleksandr Medvedev,O,1989,95.7,-135,135,155,155,100,M,Александр Медведев,Raw,,,,,B,155
5,Pavel Kovalevskiy,O,1989,96.6,150,155,-157.5,155,100,M,Павел Ковалевский,Raw,,,,,B,155
6,Vladislav Akopyan,O,1984,94.5,145,-150,-150,145,100,M,Владислав Акопян,Raw,,,,,B,145
7,Aleksandr Smirnov,O,1986,96.2,142.5,-155,-155,142.5,100,M,Александр Смирнов,Raw,,,,,B,142.5
8,Leonid Saukov,O,1986,92.3,140,-150,-150,140,100,M,Леонид Сауков,Raw,,,,,B,140
9,Dmitriy Lisitsyn,O,1980,95.5,130,-135,-135,130,100,M,Дмитрий Лисицын,Raw,,,,,B,130
1,Vasiliy Reznikov,PFM,1984,99.9,150,155,157.5,157.5,100,M,Василий Резников,Raw,,,,,B,157.5
1,Sergey Demchenko,O,1976,107.8,185,190,195,195,110,M,Сергей Демченко,Raw,,,,,B,195
2,Aleksandr Smolko,O,1990,106.9,-160,160,162.5,162.5,110,M,Александр Смолко,Raw,,,,,B,162.5
1,Mikhail Shevyakov,M1,1974,108.5,167.5,170,172.5,172.5,110,M,Михаил Шевяков,Raw,,,,,B,172.5
2,Kirill Kharabadze,M1,1972,107.8,150,-160,-160,150,110,M,Кирилл Харабадзе,Raw,,,,,B,150
1,Igor Kurotchenko,M2,1962,107.7,140,147.5,152.5,152.5,110,M,Игорь Куротченко,Raw,,,,,B,152.5
1,Kirill Kolyaskin,O,1978,121.4,210,220,225,225,125,M,Кирилл Коляскин,Raw,,,,,B,225
2,Vladimir Seleznev,O,1977,121.7,160,165,-170,165,125,M,Владимир Селезнев,Raw,,,,,B,165
1,Valeriy Yakovenko,M1,1968,114.2,175,180,-185,180,125,M,Валерий Яковенко,Raw,,,,,B,180
2,Sergey Demin,M1,1970,112.5,135,140,-145,140,125,M,Сергей Демин,Raw,,,,,B,140
1,Andrey Goryachev,PFM,1986,115.3,160,167.5,-175,167.5,125,M,Андрей Горячев,Raw,,,,,B,167.5
1,Konstantin Bogdanov,O,1976,139.3,185,197.5,-202.5,197.5,140,M,Константин Богданов,Raw,,,,,B,197.5
1,Aleksey Shoniya,M1,1970,130.1,165,175,-180,175,140,M,Алексей Шония,Raw,,,,,B,175
1,Yuliya Fomina,O,1991,47,57.5,62.5,65,65,48,F,Юлия Фомина,Raw,,,,,B,65
2,Anastasiya Babarina,O,1995,47.35,60,65,-67.5,65,48,F,Анастасия Бабарина,Raw,,,,,B,65
1,Yaroslava Radina,O,1990,50.85,40,45,50,50,52,F,Ярослава Радина,Raw,,,,,B,50
1,Yuliya Bakalina,O,1986,66.45,102.5,110,,110,67.5,F,Юлия Бакалина,Raw,,,,,B,110
1,Dmitriy Borisenko,O,1988,57.4,110,-115,-115,110,60,M,Дмитрий Борисенко,Raw,,,,,B,110
1,Andrey Neklyudov,T2,1996,68.7,70,80,-82.5,80,75,M,Андрей Неклюдов,Raw,,,,,B,80
1,Vadim Shvets,T3,1996,69.8,110,-120,-120,110,75,M,Вадим Швец,Raw,,,,,B,110
1,Roman Eremashvili,O,1981,73.35,210,217.5,220,220,75,M,,Raw,,,,,B,220
DQ,Nikolay Petrakovich,O,1979,74.8,-130,-130,-130,,75,M,Николай Петракович,Raw,,,,,B,
1,Aleksey Zhavoronkov,T2,1996,78.9,140,145,-152.5,145,82.5,M,Алексей Жаворонков,Raw,,,,,B,145
DQ,Aleksandr Krinitsyn,J,1993,80.2,155,170,180,180,82.5,M,Александр Криницын,Raw,,,,,B,
1,Stanislav Milostnoy,O,1978,75.65,212.5,220,222.5,222.5,82.5,M,Станислав Милостной,Raw,,,,,B,222.5
2,Konstantin Zhigulin,O,1987,82.4,160,172.5,-180,172.5,82.5,M,Константин Жигулин,Raw,,,,,B,172.5
3,Aleksandr Zaytsev,O,1987,82.5,155,160,165,165,82.5,M,Александр Зайцев,Raw,,,,,B,165
1,Aleksandr Leonov,M2,1959,78.1,95,102.5,105,105,82.5,M,Александр Леонов,Raw,,,,,B,105
1,Evgeniy Zhurkin,M3,1945,81.1,85,90,92.5,92.5,82.5,M,Евгений Журкин,Raw,,,,,B,92.5
1,Vladislav Rastorguev,J,1992,88.1,-175,175,182.5,182.5,90,M,Владислав Расторгуев,Raw,,,,,B,182.5
1,Aleksandr Ablakatov,J,1990,85.6,-155,-155,155,155,90,M,Александр Аблакатов,Raw,,,,,B,155
1,Andrei Nerubenko,O,1979,88.9,215,225,-232.5,225,90,M,Андрей Нерубенко,Raw,,,,,B,225
2,Roman Schekleev,O,1989,86.1,165,-170,-170,165,90,M,Роман Щеклеев,Raw,,,,,B,165
3,Denis Zaytsev,O,1983,89.7,160,165,-167.5,165,90,M,Денис Зайцев,Raw,,,,,B,165
4,Evgeniy Sergeev,O,1989,88.7,140,-150,150,150,90,M,Евгений Сергеев,Raw,,,,,B,150
DQ,Sergey Makarov,O,1977,86.7,-170,-170,-170,,90,M,Сергей Макаров,Raw,,,,,B,
1,Igor Zakharov,M1,1969,87.7,137.5,145,150,150,90,M,Игорь Захаров,Raw,,,,,B,150
2,Dmitriy Semenov,M1,1965,89.6,145,150,-155,150,90,M,Дмитрий Семенов,Raw,,,,,B,150
1,Sergey Goncharov,M2,1952,85.4,120,125,-130,125,90,M,Сергей Гончаров,Raw,,,,,B,125
1,Dmitriy Filatov,PFM,1989,83.15,145,150,155,155,90,M,Дмитрий Филатов,Raw,,,,,B,155
1,Dmitriy Chernov,T3,1995,97.2,157,165,167.5,167.5,100,M,Дмитрий Чернов,Raw,,,,,B,167.5
1,Aleksandr Glushnev,J,1992,97.8,-211,211,-213,211,100,M,Александр Глушнев,Raw,,,,,B,211
2,Faridun Imomatov,J,1993,97.1,155,160,165,165,100,M,Фаридун Имоматов,Raw,,,,,B,165
1,Vadim Rezvykh,O,1987,94.4,225,-230,230,230,100,M,Вадим Резвых,Raw,,,,,B,230
2,Aleksey Sizov,O,1979,94.25,192.5,202,210,210,100,M,Алексей Сизов,Raw,,,,,B,210
3,Igor Smirnov,O,1979,99.45,-190,190,200,200,100,M,Игорь Смирнов,Raw,,,,,B,200
4,Aleksey Galkin,O,1977,97.5,180,185,-190,185,100,M,Алексей Галкин,Raw,,,,,B,185
5,Dmitriy Sokolovskiy,O,1989,99.9,175,-190,-190,175,100,M,,Raw,,,,,B,175
6,Aleksandr Mokin,O,1978,98.7,140,150,-165,150,100,M,Александр Мокин,Raw,,,,,B,150
1,Konstantin Pasechnik,M1,1972,94.1,180,190,192.5,192.5,100,M,Константин Пасечник,Raw,,,,,B,192.5
2,Vladislav Duminika,M1,1972,94.2,-170,175,180,180,100,M,Владислав Думиника,Raw,,,,,B,180
3,Pavel Mysov,M1,1967,99.85,170,-185,-185,170,100,M,Павел Мысов,Raw,,,,,B,170
1,Kirill Ostapenko,PFM,1977,99.3,165,175,-180,175,100,M,Кирилл Остапенко,Raw,,,,,B,175
1,Artur Krupnin,J,1991,101.4,-180,185,-190,185,110,M,Артур Крупнин,Raw,,,,,B,185
2,Sergey Tsirulnikov,J,1994,107.5,-165,172.5,-177.5,172.5,110,M,Сергей Цирульников,Raw,,,,,B,172.5
1,Roman Knischuk,O,1975,107.5,230,240,247.5,247.5,110,M,Роман Книщук,Raw,,,,,B,247.5
2,Sergey Popov,O,1977,109.8,210,220,225,225,110,M,Сергей Попов,Raw,,,,,B,225
3,Igor Saley,O,1975,108.2,202.5,212.5,-217.5,212.5,110,M,,Raw,,,,,B,212.5
5,Maksim Borodin,O,1985,109.7,200,210,-215,210,110,M,Максим Бородин,Raw,,,,,B,210
4,Andrey Gogolev,O,1987,103.1,200,-210,-212.5,200,110,M,Андрей Гоголев,Raw,,,,,B,200
1,Yuriy Rodikov,M1,1974,106.5,185,190,-195,190,110,M,Юрий Родиков,Raw,,,,,B,190
1,Anatoliy Serbin,J,1990,118.8,240,250,256,256,125,M,Анатолий Сербин,Raw,,,,,B,256
1,Pavel Myasoedko,O,1977,110.2,-255,255,-275,255,125,M,,Raw,,,,,B,255
2,Yuriy Gavryushin,O,1983,117.4,220,230,240,240,125,M,Юрий Гаврюшин,Raw,,,,,B,240
3,Aleksey Markelov,O,1984,115.4,225,230,-240,230,125,M,Алексей Маркелов,Raw,,,,,B,230
1,Dmitriy Bubnov,M1,1973,117.4,210,225,-235,225,125,M,Дмитрий Бубнов,Raw,,,,,B,225
1,Andrey Khramtsov,M1,1984,128.3,-205,205,215,215,140,M,Андрей Храмцов,Raw,,,,,B,215
1,Aleksandr Mitkin,O,1986,82.2,150,-160,160,160,82.5,M,Александр Митькин,Multi-ply,,,,,B,160
DQ,Aleksandr Zhiltsov,PFM,1985,99.1,-165,-165,-165,,100,M,Александр Жильцов,Multi-ply,,,,,B,
1,Valeriy Kurochkin,O,1978,103.8,235,245,-255,245,110,M,Валерий Курочкин,Multi-ply,,,,,B,245
2,Ruslan Kulebyakin,O,1991,107.8,230,240,-247.5,240,110,M,Руслан Кулебякин,Multi-ply,,,,,B,240
1,Egor Savelyev,T3,1995,66.05,110,122.5,125,125,67.5,M,Егор Савельев,Multi-ply,,,,,B,125
1,Yuriy Eremin,O,1983,78.85,-205,205,217.5,217.5,82.5,M,Юрий Еремин,Multi-ply,,,,,B,217.5
DQ,Yuriy Churin,O,1971,78.5,-205,-205,-205,,82.5,M,Юрий Чурин,Multi-ply,,,,,B,
1,Dmitriy Mayorov,O,1988,84.5,180,190,202.5,202.5,90,M,Дмитрий Майоров,Multi-ply,,,,,B,202.5
2,Valeriy Mashkov,O,1984,87.7,150,-170,-170,150,90,M,Валерий Машков,Multi-ply,,,,,B,150
1,Igor Kalyta,O,1982,96.6,270,-280,-280,270,100,M,Игорь Калыта,Multi-ply,,,,,B,270
2,Sergey Chikin,O,1979,93.4,240,-250,-250,240,100,M,Сергей Чикин,Multi-ply,,,,,B,240
3,Oleg Loktionov,O,1977,97.1,220,235,-242.5,235,100,M,Олег Локтионов,Multi-ply,,,,,B,235
4,Sergey Khramtsov,O,1982,96.5,200,-215,,200,100,M,Сергей Храмцов,Multi-ply,,,,,B,200
1,Nikolay Alyshev,O,1985,105.8,270,280,290,290,110,M,Николай Алышев,Multi-ply,,,,,B,290
1,Viktor Fursov,O,1974,121.5,290,-300,310,310,125,M,Виктор Фурсов,Multi-ply,,,,,B,310
2,Aleksey Ventsov,O,1981,119.7,-250,-260,260,260,125,M,Алексей Венцов,Multi-ply,,,,,B,260
DQ,Anton Begalko,O,1986,110.7,-350,-350,-350,,125,M,Антон Бегалко,Multi-ply,,,,,B,
1,Irina Buksina,J,1991,43.15,,,,,44,F,Ирина Буксина,Raw,97.5,105,,105,D,105
1,Alina Sazonova,O,1988,42.25,,,,,44,F,Алина Сазонова,Raw,-90,90,-95,90,D,90
1,Gulnara Noskova,J,1993,50.9,,,,,52,F,Гульнара Носкова,Raw,90,100,-102.5,100,D,100
2,Ekaterina Zimova,J,1993,50.8,,,,,52,F,Екатерина Зимова,Raw,85,-95,95,95,D,95
1,Yuliya Shilova,O,1984,51.25,,,,,52,F,Юлия Шилова,Raw,105,112.5,-117.5,112.5,D,112.5
DQ,Aleksandra Prikhozhaya,O,1989,51.6,,,,,52,F,Александра Прихожая,Raw,-110,-110,-110,,D,
1,Natalya Sviridova,PFM,1982,51,,,,,52,F,Наталья Свиридова,Raw,70,-75,-77.5,70,D,70
1,Yuliya Rogozhina,J,1991,55,,,,,56,F,Юлия Рогожина,Raw,92.5,102.5,-115,102.5,D,102.5
1,Tatyana Grafova,O,1981,52.1,,,,,56,F,Татьяна Графова,Raw,122.5,127.5,-132.5,127.5,D,127.5
2,Alina Chipryagova,O,1989,55.15,,,,,56,F,Алина Чипрягова,Raw,90,97.5,-100,97.5,D,97.5
1,Mariya Novikova,T3,1994,59.85,,,,,60,F,Мария Новикова,Raw,92.5,100,107.5,107.5,D,107.5
1,Lyudmila Nikonova,O,1980,59.1,,,,,60,F,Людмила Никонова,Raw,112.5,122.2,125,125,D,125
1,Ekaterina Korotkova,O,1988,67.5,,,,,67.5,F,Екатерина Короткова,Raw,130,137.5,-142.5,137.5,D,137.5
2,Oksana Guseva,O,1978,64,,,,,67.5,F,Оксана Гусева,Raw,90,100,110,110,D,110
3,Mariya Yarkina,O,1983,65.05,,,,,67.5,F,Мария Яркина,Raw,92.5,105,-107.5,105,D,105
4,Kristina Pozdran,O,1988,64.4,,,,,67.5,F,Кристина Поздрань,Raw,80,-100,-100,80,D,80
1,Margarita Kashirina,J,1992,72.55,,,,,75,F,Маргарита Каширина,Raw,145,155,160,160,D,160
1,Oksana Sharova,O,1986,82.3,,,,,82.5,F,Оксана Шарова,Raw,97.5,110,-120,110,D,110
1,Elena Moiseycheva,O,1980,108.6,,,,,110,F,Елена Моисейчева,Raw,132.5,145,-155,145,D,145
1,Aleksandr Nikolaev,T1,1998,59.65,,,,,60,M,Александр Николаев,Raw,95,105,110,110,D,110
1,Andrey Merkulov,J,1992,65.2,,,,,67.5,M,Андрей Меркулов,Raw,140,-145,-145,140,D,140
1,Andrey Arsenichev,J,1991,72.85,,,,,75,M,Андрей Арсеничев,Raw,170,-180,-180,170,D,170
1,Mikhail Sokolov,O,1984,74.85,,,,,75,M,Михаил Соколов,Raw,200,210,215,215,D,215
2,Aleksey Markin,O,1986,74.4,,,,,75,M,Алексей Маркин,Raw,160,185,190,190,D,190
3,Vladimir Kovalkin,O,1988,73.55,,,,,75,M,Владимир Ковалкин,Raw,140,-150,,140,D,140
1,Sergey Zotov,PFM,1987,72.2,,,,,75,M,Сергей Зотов,Raw,180,190,-197.5,190,D,190
1,Denis Davydov,T2,1997,76.15,,,,,82.5,M,Денис Давыдов,Raw,180,190,-200,190,D,190
1,Nikolay Verbitskiy,J,1992,80.8,,,,,82.5,M,Николай Вербицкий,Raw,200,210,-225,210,D,210
2,Maksim Dmitriev,J,1993,82.3,,,,,82.5,M,Максим Дмитриев,Raw,160,180,190,190,D,190
1,Vitaliy Kulikov,O,1990,79.85,,,,,82.5,M,Виталий Куликов,Raw,210,-220,220,220,D,220
1,Aleksey Nikonov,J,1993,87.8,,,,,90,M,Алексей Никонов,Raw,190,200,-205,200,D,200
1,Aleksey Koshuba,O,1980,88.25,,,,,90,M,Алексей Кошуба,Raw,220,230,240,240,D,240
2,Sergey Rubin,O,1989,89.5,,,,,90,M,Сергей Рубин,Raw,180,195,205,205,D,205
3,Vyacheslav Khorkov,O,1979,89.95,,,,,90,M,Вячеслав Хорьков,Raw,-180,195,-200,195,D,195
1,Vladimir Damaratskiy,M2,1952,83.6,,,,,90,M,Владимир Дамарацкий,Raw,160,170,,170,D,170
1,Sergey Shukelovich,O,1984,95.8,,,,,100,M,Сергей Шукелович,Raw,230,240,-245,240,D,240
1,Yuriy Sergeev,J,1993,106.75,,,,,110,M,Юрий Сергеев,Raw,200,215,-222.5,215,D,215
1,Evgeniy Kolosov,O,1986,107.75,,,,,110,M,Евгений Колосов,Raw,-220,220,-230,220,D,220
1,Ivan Regulyarnyy,O,1984,110.6,,,,,125,M,Иван Регулярный,Raw,-230,230,240,240,D,240
2,Andrey Yashin,O,1981,118.9,,,,,125,M,Андрей Яшин,Raw,220,232.5,-235,232.5,D,232.5
1,Oleg Demchenko,O,1977,127.75,,,,,140,M,Олег Демченко,Raw,290,310,-320,310,D,310
1,Aleksey Shoniya,M1,1970,130.1,,,,,140,M,Алексей Шония,Raw,210,230,245,245,D,245
1,Sergey Buryakov,O,1977,62.55,,,,,67.5,M,Сергей Буряков,Raw,145,155,165,165,D,165
1,Oleg Anoshkin,O,1986,74.4,,,,,75,M,Олег Аношкин,Raw,210,220,225,225,D,225
1,Aram Grigoryan,O,1989,80.3,,,,,82.5,M,Арам Григорян,Raw,250,-275,-275,250,D,250
2,Aleksey Kotov,O,1986,79.7,,,,,82.5,M,Алексей Котов,Raw,175,190,-202.5,190,D,190
3,Artem Chuchelov,O,1989,81,,,,,82.5,M,Артем Чучелов,Raw,185,-202.5,-202.5,185,D,185
1,Sergey Ilyukhin,O,1981,88,,,,,90,M,Сергей Илюхин,Raw,220,,,220,D,220
2,Rafael Syamiullin,O,1984,88.3,,,,,90,M,Рафаэль Сямиуллин,Raw,165,180,190,190,D,190
1,Dmitriy Basetskiy,M2,1964,89.2,,,,,90,M,Дмитрий Басецкий,Raw,170,190,210,210,D,210
1,Aleksey Zhirnov,O,1981,94.7,,,,,100,M,Алексей Жирнов,Raw,320,-340,-340,320,D,320
3,Sergey Moiseev,O,1977,97.6,,,,,100,M,Сергей Моисеев,Raw,250,270,-285,270,D,270
2,Ivan Slavinskiy,O,1983,98.85,,,,,100,M,Иван Славинский,Raw,210,225,240,240,D,240
1,Vadim Zaytsev,M2,1960,91.4,,,,,100,M,Вадим Зайцев,Raw,260,,,260,D,260
1,Aleksey Melnikov,PFM,1987,96.7,,,,,100,M,Алексей Мельников,Raw,220,235,-250,235,D,235
1,Mikhail Grinko,O,1978,108.2,,,,,110,M,Михаил Гринько,Raw,230,260,,260,D,260
1,Vadim Arendaruk,PFM,1982,73.6,,,,,75,M,Вадим Арендарук,Multi-ply,170,200,-210,200,D,200
1,Aleksey Koshuba,O,1980,88.25,,,,,90,M,Алексей Кошуба,Multi-ply,220,230,240,240,D,240
1,Sergey Shukelovich,O,1984,95.8,,,,,100,M,Сергей Шукелович,Multi-ply,240,250,-260,250,D,250
1,Ilkin Mekhtiev,O,1986,78.8,,,,,82.5,M,Илькин Мехтиев,Multi-ply,210,230,-240,230,D,230
1,Ivan Makeev,J,1994,96.6,,,,,100,M,Иван Макеев,Multi-ply,230,250,-260,250,D,250
1,Mikhail Grinko,O,1978,108.2,,,,,110,M,Михаил Гринько,Multi-ply,230,260,,260,D,260
1,Ruslan Pustovoy,O,1979,110.8,,,,,125,M,Руслан Пустовой,Multi-ply,290,310,325,325,D,325
