Name,WeightClassKg,Sex,Squat1Kg,Squat2Kg,Squat3Kg,Best3SquatKg,Bench1Kg,Bench2Kg,Bench3Kg,Best3BenchKg,Deadlift1Kg,Deadlift2Kg,Deadlift3Kg,Best3DeadliftKg,TotalKg,Event,Equipment,Division,Place
Loren Chapin,52,M,167.5,175,-182.5,175,87.5,92.5,-95,92.5,145,160,-172.5,160,427.5,SBD,Single-ply,Open,1
Michael Pinto,52,M,-142.5,-142.5,142.5,142.5,72.5,-80,-80,72.5,145,-150,,145,360,SBD,Single-ply,Open,2
Randy Burris,56,M,162.5,170,-182.5,170,107.5,112.5,115,115,170,190,-195,190,475,SBD,Single-ply,Open,1
Ken Westbrook,60,M,192.5,222.5,-227.5,222.5,92.5,97.5,-102.5,97.5,192.5,207.5,-215,207.5,527.5,SBD,Single-ply,Open,1
Abe Roman,67.5,M,215,230,242.5,242.5,152.5,157.5,-160,157.5,232.5,242.5,247.5,247.5,647.5,SBD,Single-ply,Open,1
Paul Sacco,67.5,M,220,240,-252.5,240,142.5,152.5,-157.5,152.5,227.5,245,-252.5,245,637.5,SBD,Single-ply,Open,2
John Shifflet,67.5,M,150,165,182.5,182.5,120,127.5,-132.5,127.5,182.5,190,-200,190,500,SBD,Single-ply,Open,3
Chip Hultquist,75,M,257.5,-275,280,280,167.5,172.5,-175,172.5,267.5,-295,-295,267.5,720,SBD,Single-ply,Open,1
Israel Mendoza,75,M,257.5,275,-280,275,167.5,172.5,-175,172.5,240,-262.5,-270,240,687.5,SBD,Single-ply,Open,3
Bill Robinson,75,M,237.5,-252.5,255,255,170,-182.5,-182.5,170,250,262.5,267.5,267.5,692.5,SBD,Single-ply,Open,2
Terry Dangerfield,75,M,240,257.5,-265,257.5,150,157.5,-162.5,157.5,255,267.5,-292.5,267.5,682.5,SBD,Single-ply,Open,4
Russel Adkins,75,M,237.5,-250,250,250,157.5,165,170,170,215,227.5,237.5,237.5,657.5,SBD,Single-ply,Open,5
Rich Walsh,75,M,240,250,255,255,142.5,145,-150,145,242.5,247.5,-270,247.5,647.5,SBD,Single-ply,Open,6
Tom Eiseman,82.5,M,287.5,-305,310,310,157.5,162.5,-167.5,162.5,320,347.5,-360.5,347.5,820,SBD,Single-ply,Open,1
Derek Donahue,82.5,M,282.5,292.5,-297.5,292.5,192.5,200,-205,200,267.5,275,-280,275,767.5,SBD,Single-ply,Open,2
Mike DelSignore,82.5,M,-282.5,282.5,300,300,170,-177.5,177.5,177.5,260,272.5,-280,272.5,750,SBD,Single-ply,Open,3
Lester Maslow,82.5,M,275,-282.5,-282.5,275,155,-162.5,167.5,167.5,277.5,-290,-290,277.5,720,SBD,Single-ply,Open,4
Virgil Diaz,82.5,M,272.5,-280,282.5,282.5,162.5,-167.5,-167.5,162.5,235,245,-250,245,690,SBD,Single-ply,Open,5
Sy Alli,82.5,M,257.5,272.5,,272.5,-167.5,-167.5,-167.5,,,,,,,SBD,Single-ply,Open,DQ
Chuck Siler,90,M,320,332.5,340,340,205,215,222.5,222.5,295,-307.5,307.5,307.5,870,SBD,Single-ply,Open,1
Tony Kamand,90,M,-305,310,322.5,322.5,192.5,205,-207.5,205,292.5,-307.5,-307.5,292.5,820,SBD,Single-ply,Open,2
Joe Walden,90,M,302.5,327.5,-335,327.5,200,210,-217.5,210,282.5,-302.5,-302.5,282.5,820,SBD,Single-ply,Open,3
Rick Weil,90,M,272.5,295,317.5,317.5,220,235,-245,235,250,-272.5,,250,802.5,SBD,Single-ply,Open,4
Ross Depencier,90,M,292.5,305,312.5,312.5,190,200,202.5,202.5,-277.5,-277.5,282.5,282.5,797.5,SBD,Single-ply,Open,5
Tim Jennings,90,M,320,-327.5,-330,320,170,182.5,187.5,187.5,275,290,-297.5,290,797.5,SBD,Single-ply,Open,6
Steve Murdock,90,M,292.5,310,312.5,312.5,155,160,-162.5,160,292.5,317.5,-327.5,317.5,790,SBD,Single-ply,Open,7
D. Christiansen,90,M,277.5,290,295,295,180,185,-187.5,185,310,-320,-320,310,790,SBD,Single-ply,Open,8
Ron Molden,90,M,285,302.5,310,310,160,170,-175,170,295,-305,-307.5,295,775,SBD,Single-ply,Open,9
Larry King,90,M,277.5,-295,-300,277.5,182.5,-192.5,-192.5,182.5,287.5,-300,-300,287.5,747.5,SBD,Single-ply,Open,10
Mark Northcutt,90,M,-325,-327.5,-327.5,,,,,,,,,,,SBD,Single-ply,Open,DQ
Tom Battles,100,M,295,320,330,330,205,227.5,-237.5,227.5,295,330,-342.5,330,887.5,SBD,Single-ply,Open,1
Dan Helgenberger,100,M,322.5,-335,335,335,205,212.5,-220,212.5,317.5,327.5,-332.5,327.5,875,SBD,Single-ply,Open,2
Bill Busby,100,M,305,320,-330,320,192.5,200,212.5,212.5,305,322.5,-332.5,322.5,855,SBD,Single-ply,Open,3
Pat Brago,100,M,290,312.5,327.5,327.5,227.5,237.5,242.5,242.5,285,-300,-300,285,855,SBD,Single-ply,Open,4
Frank Hottendorf,100,M,322.5,345,352.5,352.5,192.5,202.5,-207.5,202.5,280,292.5,-302.5,292.5,847.5,SBD,Single-ply,Open,5
Marshall Moore,100,M,310,320,-327.5,320,180,185,-187.5,185,310,325,-345,325,830,SBD,Single-ply,Open,6
Al Teagle,100,M,170,-180,-180,170,-147.5,160,-180,160,190,210,-227.5,210,540,SBD,Single-ply,Open,7
Brett Russell,110,M,-350,352.5,367.5,367.5,207.5,-212.5,-212.5,207.5,367.5,372.5,-377.5,372.5,947.5,SBD,Single-ply,Open,1
Thor Kritsky,110,M,347.5,375,385,385,215,225,-230,225,322.5,335,-342.5,335,945,SBD,Single-ply,Open,2
Robert Dobrowolski,110,M,-347.5,347.5,-367.5,347.5,200,212.5,220,220,322.5,340,-350,340,907.5,SBD,Single-ply,Open,3
Dan Martinez,110,M,295,312.5,325,325,212.5,222.5,-230,222.5,330,-352.5,352.5,352.5,900,SBD,Single-ply,Open,4
John Schaeffer,110,M,-320,-320,-340,,,,,,,,,,,SBD,Single-ply,Open,DQ
Brad Kretsch,125,M,340,-357.5,-357.5,340,190,222.5,227.5,227.5,345,357.5,-370,357.5,925,SBD,Single-ply,Open,1
Lee Jacobs,125,M,327.5,-342.5,-342.5,327.5,242.5,250,257.5,257.5,305,317.5,-335,317.5,902.5,SBD,Single-ply,Open,2
Paul Sheedy,125,M,322.5,337.5,352.5,352.5,-190,195,202.5,202.5,325,-357.5,-357.5,325,880,SBD,Single-ply,Open,3
Dan Pollio,125,M,327.5,-330,345,345,190,200,-205,200,272.5,295,-335,295,840,SBD,Single-ply,Open,4
Ed Riley,125,M,262.5,277.5,295,295,200,205,-210,205,287.5,292.5,-307.5,292.5,792.5,SBD,Single-ply,Open,5
Robert Debolt,125,M,280,292.5,302.5,302.5,190,-197.5,-197.5,190,-297.5,-297.5,-302.5,,,SBD,Single-ply,Open,DQ
Jim Mucciola,125+,M,335,345,-352.5,345,222.5,-235,-235,222.5,330,-340,340,340,907.5,SBD,Single-ply,Open,1
John Gentile,125+,M,345,352.5,-365,352.5,227.5,237.5,-242.5,237.5,312.5,-327.5,-327.5,312.5,902.5,SBD,Single-ply,Open,2
Jeff Cook,125+,M,310,320,-330,320,187.5,-195,195,195,332.5,355,-365,355,870,SBD,Single-ply,Open,3
Russ Barlow,125+,M,-297.5,312.5,-320,312.5,210,217.5,-222.5,217.5,310,-325,,310,840,SBD,Single-ply,Open,4
