Place,Sex,Name,Event,Division,WeightClassKg,Equipment,Team,BodyweightKg,Squat1Kg,Squat2Kg,Squat3Kg,Best3SquatKg,Bench1Kg,Bench2Kg,Bench3Kg,Best3BenchKg,Deadlift1Kg,Deadlift2Kg,Deadlift3Kg,Best3DeadliftKg,TotalKg,BirthYear
1,M,Brandon Helle,SBD,JR,93,Single-ply,MI,91,197.3,-208.7,-208.7,197.3,120.2,-131.5,-131.5,120.2,192.8,204.1,210.9,210.9,528.4,
1,M,Brandon Helle,SBD,O,93,Single-ply,MI,91,197.3,-208.7,-208.7,197.3,120.2,-131.5,-131.5,120.2,192.8,204.1,210.9,210.9,528.4,
7,M,Nathan Blackaby,SBD,R-O,74,Raw,ND,72,167.8,179.2,188.2,188.2,102.1,113.4,-122.5,113.4,215.5,233.6,-244.9,233.6,535.2,1986
DQ,M,Keegan Fahey,SBD,R-O,74,Raw,MI,71.8,-138.4,-147.4,-147.4,,-88.5,,,,,,,,,
6,M,Mauricio De Rosso,SBD,R-O,83,Raw,MI,81.7,176.9,183.7,186,186,106.6,108.9,-111.1,108.9,226.8,238.1,249.5,249.5,544.3,
9,M,Mickey Carolan,SBD,R-O,83,Raw,MI,82,172.4,183.7,192.8,192.8,99.8,108.9,117.9,117.9,172.4,190.5,208.7,208.7,519.4,1981
11,M,Karan Sharma,SBD,R-O,83,Raw,IN,80.5,-165.6,176.9,183.7,183.7,108.9,117.9,-124.7,117.9,201.9,-215.5,215.5,215.5,517.1,
12,M,Robert Cady,SBD,R-O,83,Raw,MI,81.5,165.6,174.6,179.2,179.2,124.7,133.8,142.9,142.9,183.7,-192.8,192.8,192.8,514.8,1990
14,M,Corey Perdaris,SBD,R-O,83,Raw,MI,82.7,147.4,156.5,161,161,120.2,129.3,-133.8,129.3,188.2,-208.7,,188.2,478.5,
3,M,Aaron King,SBD,R-O,93,Raw,WI,90.2,215.5,222.3,235.9,235.9,-154.2,156.5,161,161,240.4,249.5,-254,249.5,646.4,1991
8,M,Dane Roach,SBD,R-O,93,Raw,MI,87.5,165.6,174.6,181.4,181.4,124.7,131.5,136.1,136.1,201.9,210.9,217.7,217.7,535.2,1991
10,M,Tommy Garner,SBD,R-O,93,Raw,MI,91.3,152,165.6,174.6,174.6,-113.4,120.2,-129.3,120.2,204.1,224.5,-235.9,224.5,519.4,
18,M,Jeff Bohn,SBD,R-O,93,Raw,MI,92.8,-90.7,-102.1,108.9,108.9,95.3,102.1,111.1,111.1,158.8,181.4,197.3,197.3,417.3,1960
5,M,Neil Reimbold,SBD,R-O,105,Raw,MI,104.3,204.1,231.3,-240.4,231.3,113.4,122.5,127,127,204.1,231.3,-240.4,231.3,589.7,
2,M,Bill Coyne,SBD,R-O,120,Raw,IL,118.8,224.5,235.9,240.4,240.4,152,161,167.8,167.8,229.1,242.7,249.5,249.5,657.7,1990
4,M,Jake Siebert,SBD,R-O,120,Raw,MI,113.2,183.7,197.3,-201.9,197.3,145.2,149.7,154.2,154.2,233.6,247.2,254,254,605.5,
13,M,Mike Hamilton,SBD,R-O,120,Raw,MI,109.5,152,165.6,181.4,181.4,140.6,-145.2,-145.2,140.6,158.8,181.4,-197.3,181.4,503.5,1984
15,M,Scott Heitman,SBD,R-O,120,Raw,IL,117,167.8,-174.6,-179.2,167.8,122.5,-127,-127,122.5,165.6,172.4,181.4,181.4,471.7,1969
16,M,Jeff Heitman,SBD,R-O,120,Raw,IL,110.5,-167.8,172.4,-183.7,172.4,102.1,,,102.1,165.6,170.1,181.4,181.4,455.9,
1,M,Aaron Gibes,SBD,R-O,120+,Raw,MI,183.7,183.7,215.5,254,254,147.4,-165.6,165.6,165.6,192.8,256.3,-285.8,256.3,675.9,1984
1,M,Jeff Bohn,SBD,R-M3,93,Raw,MI,92.8,-90.7,-102.1,108.9,108.9,95.3,102.1,111.1,111.1,158.8,181.4,197.3,197.3,417.3,1960
5,F,April Kelly,SBD,R-O,57,Raw,IN,54.2,74.8,-77.1,-77.1,74.8,45.4,49.9,-54.4,49.9,-90.7,-90.7,,,124.7,1978
2,F,Joanna Valdez,SBD,R-O,72,Raw,MI,71.6,106.6,115.7,129.3,129.3,61.2,68,-79.4,68,106.6,-115.7,115.7,115.7,313,1990
1,F,Johanna Hamilton,SBD,R-O,84,Raw,MI,75.2,113.4,122.5,-129.3,122.5,56.7,61.2,-65.8,61.2,136.1,147.4,158.8,158.8,342.5,1991
3,F,Rebecca Anthony,SBD,R-O,84+,Raw,MI,91.1,83.9,90.7,97.5,97.5,49.9,52.2,56.7,56.7,140.6,142.9,-147.4,142.9,297.1,1974
1,F,Rebecca Anthony,SBD,R-M1,84+,Raw,MI,91.1,83.9,90.7,97.5,97.5,49.9,52.2,56.7,56.7,140.6,142.9,-147.4,142.9,297.1,1974
1,M,Cody Braem,BD,R-T3,93,Raw,MI,88.2,,,,,-131.5,138.4,142.9,142.9,183.7,192.8,204.1,204.1,347,
1,M,Zachary King,B,R-O,44,Raw,IN,43.6,,,,,29.5,34,38.6,38.6,,,,,38.6,
17,M,Pete Radlowski,BD,R-O,93,Raw,MI,91.6,,,,,142.9,152,-161,152,249.5,272.2,-294.8,272.2,424.1,1984
19,M,Cody Braem,BD,R-O,93,Raw,MI,88.2,,,,,-131.5,138.4,142.9,142.9,183.7,192.8,204.1,204.1,347,
20,M,Jim Perdaris,BD,R-O,105,Raw,MI,94.3,,,,,106.6,117.9,131.5,131.5,68,102.1,,102.1,233.6,
1,M,Jim Perdaris,BD,R-M4,105,Raw,MI,94.3,,,,,106.6,117.9,131.5,131.5,68,102.1,,102.1,233.6,
4,F,Toni Vega,BD,R-O,84+,Raw,MI,92.9,,,,,47.6,52.2,54.4,54.4,124.7,-133.8,-133.8,124.7,179.2,1961
1,F,Toni Vega,BD,R-M3,84+,Raw,MI,92.9,,,,,47.6,52.2,54.4,54.4,124.7,-133.8,-133.8,124.7,179.2,1961
