Place,Name,State,WeightClassKg,BodyweightKg,Age,Best3SquatKg,Best3BenchKg,Best3DeadliftKg,TotalKg,Sex,Division,Equipment,Event,Deadlift4Kg
1,Amanda Adkison,TX,48,48,22,72.5,47.5,105,225,F,Junior 20-23,Raw,SBD,
1,Caitlin King,TX,67.5,61.2,22,105,65,125,295,F,Junior 20-23,Raw,SBD,
2,Kelsey Davis,TX,67.5,61.6,23,75,32.5,85,192.5,F,Junior 20-23,Raw,SBD,
1,Jessica Wilkins,OR,56,54,30,102.5,45,132.5,280,F,Open,Raw,SBD,
2,Val McElveen,TX,56,54.2,32,112.5,52.5,102.5,267.5,F,Open,Raw,SBD,
3,Catherine Yoes,TX,56,55.4,49,65,35,92.5,192.5,F,Open,Raw,SBD,
1,Sara Russert,WA,60,59.4,35,120,75,132.5,327.5,F,Open,Raw,SBD,
1,Ashley Garcia,TX,67.5,66.5,36,160,87.5,182.5,430,F,Open,Raw,SBD,
2,Anna D'Alessio,TX,67.5,66,26,142.5,72.5,132.5,347.5,F,Open,Raw,SBD,
3,Anastasia Zinchenko,Germany,67.5,66.2,31,112.5,75,137.5,325,F,Open,Raw,SBD,
4,Caitlin King,TX,67.5,61.2,22,105,65,125,295,F,Open,Raw,SBD,
1,Dominique Trimino,TX,75,74.8,33,110,62.5,132.5,305,F,Open,Raw,SBD,
2,Michelle Lopez,TX,75,70.2,33,90,60,117.5,267.5,F,Open,Raw,SBD,
3,Mari Kettler,TX,75,69.3,34,72.5,50,105,227.5,F,Open,Raw,SBD,
1,Amy Davis,LA,82.5,80.2,34,147.5,85,165,397.5,F,Open,Raw,SBD,
2,Andrea Todd,TX,82.5,75.3,25,102.5,50,125,277.5,F,Open,Raw,SBD,
1,Sarah Webb,TX,90+,116.2,27,125,72.5,162.5,360,F,Open,Raw,SBD,
2,Sarah Shearin,TX,90+,122.4,25,130,70,137.5,337.5,F,Open,Raw,SBD,
3,Sasha Avila,TX,90+,102.2,29,120,70,142.5,332.5,F,Open,Raw,SBD,
1,Tamara Stromberg,TX,52,51.5,39,105,52.5,132.5,290,F,Submaster 35-39,Raw,SBD,
1,Leslie Carrillo,TX,56,54.5,36,87.5,60,120,267.5,F,Submaster 35-39,Raw,SBD,
1,Ashley Garcia,TX,67.5,66.5,36,160,87.5,182.5,430,F,Submaster 35-39,Raw,SBD,
1,Sumita Singh,TX,52,50.2,41,72.5,50,102.5,225,F,Master 40-44,Raw,SBD,
1,Catherine Yoes,TX,56,55.4,49,65,35,92.5,192.5,F,Master 45-49,Raw,SBD,
1,Alice Hulsey,TX,67.5,62.7,56,85,50,138,273,F,Master 55-59,Raw,SBD,
1,Melinda Quiroz,TX,90,85.7,43,110,62.5,145,317.5,F,Master 40-44,Raw,SBD,
1,Shari Davis,TX,90,84,53,90,52.5,102.5,245,F,Master 50-54,Raw,SBD,
1,Gillian Lukes,TX,90+,99.5,43,110,77.5,120,307.5,F,Master 40-44,Raw,SBD,
1,Wyatt Uebel,MO,82.5,81.7,20,217.5,120,250,587.5,M,Junior 20-23,Raw,SBD,
1,Kevin Kim,TX,90,84,23,160,102.5,197.5,460,M,Junior 20-23,Raw,SBD,
1,Jack Rothenberger,MO,125,124.5,23,235,147.5,227.5,610,M,Junior 20-23,Raw,SBD,
1,David Berube,TX,56,54.5,25,77.5,57.5,105,240,M,Open,Raw,SBD,
1,Christopher Primeau,TX,75,74.5,31,202.5,147.5,210,560,M,Open,Raw,SBD,
2,Mondrae Ingram,TX,75,74.5,31,192.5,125,227.5,545,M,Open,Raw,SBD,
3,Daniel Albaugh,TX,75,74.3,34,190,132.5,220,542.5,M,Open,Raw,SBD,
1,Giacomo Marchese,MA,82.5,81.5,36,192.5,120,242.5,555,M,Open,Raw,SBD,
2,Aram Bell,TX,82.5,80.8,28,175,130,227.5,532.5,M,Open,Raw,SBD,
3,Ricky Williams,TX,82.5,82.4,30,182.5,110,222.5,515,M,Open,Raw,SBD,
4,Benjamin Magby,TX,82.5,82,26,165,117.5,205,487.5,M,Open,Raw,SBD,
5,Reginald Thompson,TX,82.5,80.11,31,130,85,155,370,M,Open,Raw,SBD,
6,Ty Burge,TX,82.5,80.6,28,125,102.5,125,352.5,M,Open,Raw,SBD,
1,Kevin Anderosn,TX,90,88,24,232.5,142.5,272.5,647.5,M,Open,Raw,SBD,
2,Paul Salomone,NY,90,88.03,35,205,185,242.5,632.5,M,Open,Raw,SBD,
3,Jared Hidalgo,TX,90,89.6,34,222.5,157.5,250,630,M,Open,Raw,SBD,
4,John Kornbacher,TX,90,88.9,31,185,125,205,515,M,Open,Raw,SBD,
5,Chris Boette,TX,90,86.7,34,155,92.5,185,432.5,M,Open,Raw,SBD,
6,Mohit Raghunathan,TX,90,83.5,27,110,100,160,370,M,Open,Raw,SBD,
1,Irving Acosta,TX,100,99.2,29,230,150,245,625,M,Open,Raw,SBD,
2,Justin Wecker,TX,100,99.5,32,170,150,190,510,M,Open,Raw,SBD,
3,Nathan Berliner,TX,100,91.5,25,150,90,170,410,M,Open,Raw,SBD,
1,Chris Isenblitter,TX,110,106.6,29,265,192.5,272.5,730,M,Open,Raw,SBD,
2,Justin Davis,LA,110,107,32,235,167.5,250,652.5,M,Open,Raw,SBD,
1,Rocky Molina II,TX,125,121.2,31,277.5,157.5,275,710,M,Open,Raw,SBD,
2,Adam Martinez,TX,125,122,32,210,170,247.5,627.5,M,Open,Raw,SBD,
1,Ndem Nkem,CA,140,127,33,202.5,142.5,227.5,572.5,M,Open,Raw,SBD,
1,J. Hernandez,TX,140+,183.7,29,252.5,152.5,255,660,M,Open,Raw,SBD,
2,Kenneth Monk,TX,140+,157.7,26,217.5,142.5,230,590,M,Open,Raw,SBD,
1,Giacomo Marchese,MA,82.5,81.5,36,192.5,120,242.5,555,M,Submaster 35-39,Raw,SBD,
1,Paul Salomone,NY,90,88.03,35,205,185,242.5,632.5,M,Submaster 35-39,Raw,SBD,
1,David Wisdom,TX,90,88.4,57,142.5,157.5,192.5,492.5,M,Master 55-59,Raw,SBD,
1,Matthew Bickley,TX,110,107.9,48,125,87.5,170,382.5,M,Master 45-49,Raw,SBD,
1,Todd Knickman,MO,125,118,48,265,210,285,760,M,Master 45-49,Raw,SBD,
1,Crystal Moulton,UT,60,59,37,102.5,60,122.5,285,F,Open,Wraps,SBD,
1,Krista Kharazi-Goljahi,TX,67.5,67.3,28,127.5,72.5,162.5,362.5,F,Open,Wraps,SBD,
1,Crystal Moulton,UT,60,59,37,102.5,60,122.5,285,F,Submaster 35-39,Wraps,SBD,
1,Ashton Rouska,TX,90,88.5,20,317.5,182.5,335,835,M,Junior 20-23,Wraps,SBD,
DQ,Colten Johnson,TX,100,90.3,23,197.5,,,,M,Junior 20-23,Wraps,SBD,
1,Sebastian Enriquez,TX,125,122,17,230,137.5,230,597.5,M,Junior 16-17,Wraps,SBD,
1,Hector Landa,TX,75,70.7,27,180,107.5,195,482.5,M,Open,Wraps,SBD,
2,Joe Rutland,TX,75,69.4,52,67.5,65,137.5,270,M,Open,Wraps,SBD,
1,Ben Pollack,TX,82.5,82.5,29,340.5,182.5,335,858,M,Open,Wraps,SBD,
2,Christopher Bell,TX,82.5,80.5,32,215,142.5,240,597.5,M,Open,Wraps,SBD,
1,Ashton Rouska,TX,90,88.5,20,317.5,182.5,335,835,M,Open,Wraps,SBD,
2,Marcus Case,TX,90,89.2,28,240,187.5,287.5,715,M,Open,Wraps,SBD,
3,Zach White,TX,90,89.1,28,207.5,157.5,255,620,M,Open,Wraps,SBD,
DQ,William Sherman,TX,90,89.1,24,,105,260,,M,Open,Wraps,SBD,
1,King Supa,TX,100,99.07,28,297.5,187.5,305,790,M,Open,Wraps,SBD,
DQ,Colten Johnson,TX,100,90.3,23,197.5,,,,M,Open,Wraps,SBD,
1,Taylor Zapalac,TX,110,108.5,24,250,192.5,240,682.5,M,Open,Wraps,SBD,
1,Adrian Sharman,TX,125,117,52,290,160,310,760,M,Open,Wraps,SBD,
DQ,Vincent Vela-Pulido,TX,140,130.6,27,,197.5,320,,M,Open,Wraps,SBD,
1,Joe Rutland,TX,75,69.4,52,67.5,65,137.5,270,M,Master 50-54,Wraps,SBD,
DQ,Mike Padilla,TX,90,89.6,48,,157.5,235,,M,Master 45-49,Wraps,SBD,
1,Derek Jarman,TX,125,114.1,40,287.5,205,307.5,800,M,Master 40-44,Wraps,SBD,
1,Adrian Sharman,TX,125,117,52,290,160,310,760,M,Master 50-54,Wraps,SBD,
DQ,Paul Sanchez,TX,100,97.7,17,295,,,,M,Junior 16-17,Single-ply,SBD,
1,Henry Mcfarland,TX,100,99.2,29,180,150,230,560,M,Open,Single-ply,SBD,
1,CJ McFarland,TX,110,106.9,25,245,190,250,685,M,Open,Single-ply,SBD,
1,Zack Ruhl,TX,75,68.8,28,,220,,220,M,Open,Raw,B,
1,Paul Salomone,NY,90,88.03,35,,185,,185,M,Open,Raw,B,
1,Cody Hoferer,NE,100,99.2,29,,210,,210,M,Open,Raw,B,
2,King Supa,TX,100,99.07,28,,187.5,,187.5,M,Open,Raw,B,
1,Paul Salomone,NY,90,88.03,35,,185,,185,M,Submaster 35-39,Raw,B,
1,Joe Chapman,TX,110,104.7,60,,127.5,,127.5,M,Master 60-64,Raw,B,
1,King Supa,TX,100,99.07,28,,,305,305,M,Open,Raw,D,
1,Harvey Pendleton,TX,90,85.5,70,,,198,198,M,Master 70-74,Raw,D,200
1,Ashley Garcia,TX,67.5,66.5,36,,87.5,182.5,270,F,Open,Raw,BD,
2,Ashley Teela,TX,67.5,65.4,31,,47.5,105,152.5,F,Open,Raw,BD,
1,Jessica Ross,TX,82.5,81.9,32,,57.5,135,192.5,F,Open,Raw,BD,
1,Ashley Garcia,TX,67.5,66.5,36,,87.5,182.5,270,F,Submaster 35-39,Raw,BD,
DQ,Francisco Lopez,TX,75,72.73,16,,100,,,M,Junior 16-17,Raw,BD,
1,Derick Rodriguez,TX,75,74.65,27,,122.5,205,327.5,M,Open,Raw,BD,
1,William Sherman,TX,90,89.1,24,,105,260,365,M,Open,Raw,BD,
2,Adam Simkins,TX,90,82.6,39,,135,185,320,M,Open,Raw,BD,
1,King Supa,TX,100,99.07,28,,187.5,305,492.5,M,Open,Raw,BD,
1,Vincent Vela-Pulido,TX,140,130.6,27,,197.5,320,517.5,M,Open,Raw,BD,
1,Adam Simkins,TX,90,82.6,39,,135,185,320,M,Submaster 35-39,Raw,BD,
1,Mike Padilla,TX,90,89.6,48,,157.5,235,392.5,M,Master 45-49,Raw,BD,
